                                                      USPA Drug Tested Unbreakable Warrior June 15, 2019 Plainfield, IN

                                    Wt                                                                                    Wilks     McC
             Name          State            Weight   Age      SQ Kg           BP Kg          DL Kg         Total Kg
                                   class                                                                                  Total     Total   SQ Lbs   BP Lbs   DL Lbs   Total Lbs
    Women Raw Powerlifting
    75kg Jr 20-23
1   Grace Thomas           IN      75kg      73.5    21        137.5           67.5           147.5          352.5        339.422           303.1    148.8    325.2      777.1

    60kg Open
1   Samantha Terry          IN     60kg      58.4    25        112.5            60             115           287.5        327.348            248     132.3    253.5      633.8
2   Alaina Wilken           IN     60kg      58.2    27        102.5            45             115           262.5         299.67            226     99.2     253.5      578.7

    67.5kg Open
1   Naz Salman              IN     67.5kg    64.7    28         155             75            157.5          387.5        407.921           341.7    165.3    347.2      854.3
                                                                            4th: 172.5

    75kg Open
1   Grace Thomas            IN     75kg      73.5    21        137.5           67.5           147.5          352.5        339.422           303.1    148.8    325.2      777.1

    82.5kg Open
1   Kaitlin Wiley           IN     82.5kg    80.9    24        127.5            85            147.5           360         327.384           281.1    187.4    325.2      793.7
2   Nicki Laycoax           IN     82.5kg    79.4    40         130             90            132.5          352.5        323.912 323.912   286.6    198.4    292.1      777.1
                                                             4th: 137.5

    82.5kg Master 40-44
1   Nicki Laycoax           IN     82.5kg    79.4    40         130             90            132.5          352.5        323.912 323.912   286.6    198.4    292.1      777.1
                                                             4th: 137.5

    Men Raw Powerlifting
    67.5kg Jr 18-19
1   James Daniken           IN     67.5kg    65.2    18         125            105             175            405         321.246           275.6    231.5    385.8      892.9
2   Ryan Hueseman           IN     67.5kg    66.9    19        147.5           72.5           172.5          392.5        304.816           325.2    159.8    380.3      865.3

    67.5kg Jr 20-23
1   Connor Deford           IN     67.5kg    66.4    22        152.5           92.5            170            415         324.24            336.2    203.9    374.8      914.9

    75kg Jr 20-23
1   Jake Cooper             IN     75kg       73     22         170             125           212.5          507.5        368.648           374.8    275.6    468.5     1118.8

    82.5kg Jr 20-23
1   Sean Cooper             IN     82.5kg    79.9    21         185             120           227.5          532.5        363.804           407.9    264.6    501.5     1173.9

    100kg Jr 20-23
1   Kameron Thompson        IN     100kg     99.2    22        187.5            165           257.5           610         372.466           413.4    363.8    567.7     1344.8
2   Austin Biggs            IN     100kg     96.1    20         195            147.5          227.5           570         352.716           429.9    325.2    501.5     1256.6
3   Mckinen Flannery        IN     100kg     98.7    22         200            132.5           205           537.5        328.843           440.9    292.1    451.9      1185
4   Jonathan Biava          IN     100kg     97.8    22         180             125            220            525         322.455           396.8    275.6     485      1157.4

    110kg Jr 16-17
1   Alex Payne              IN     110kg    108.2    17         235            147.5           260           642.5        380.103           518.1    325.2    573.2     1416.5

    110kg Jr 20-23
1   Justus Stuck            KY     110kg    105.1    23        197.5           127.5          232.5          557.5        333.051           435.4    281.1    512.6     1229.1
                                                      USPA Drug Tested Unbreakable Warrior June 15, 2019 Plainfield, IN

                                    Wt                                                                                    Wilks     McC
               Name        State            Weight   Age      SQ Kg           BP Kg          DL Kg         Total Kg
                                   class                                                                                  Total     Total   SQ Lbs   BP Lbs   DL Lbs   Total Lbs

     125kg Jr 20-23
1    Kaleb Greener          IN     125kg     111     22         265            142.5           300           707.5        415.232           584.2    314.2    661.4     1559.8

     SHW Jr 18-19
1    Jeremiah Mcgee         IN     SHW      152.7    19        192.5            140           197.5           530         292.507           424.4    308.6    435.4     1168.4

     67.5kg Open
1    James Daniken          IN     67.5kg    65.2    18         125            105             175            405         321.246           275.6    231.5    385.8      892.9
2    Ryan Hueseman          IN     67.5kg    66.9    19        147.5           72.5           172.5          392.5        304.816           325.2    159.8    380.3      865.3
3    Mitch Maple            IN     67.5kg    65.1    24          70             55            142.5          267.5        212.449           154.3    121.3    314.2      589.7

     75kg Open
DQ   Brandon Harnish        IN     75kg      74.8    33         155              0             190             0            0               341.7      0      418.9        0

     82.5kg Open
1    Deon Casey             IN     82.5kg    81.4    27         215            182.5          272.5           670         452.518            474     402.3    600.8     1477.1

     90kg Open
1    Phillip Matar          IL     90kg      86.1    32         160             160           207.5          527.5        344.774           352.7    352.7    457.5     1162.9
2    Eric Terry             IN     90kg      88.8    27         185            122.5           220           527.5        339.077           407.9    270.1     485      1162.9

     100kg Open
1    Kameron Thompson       IN     100kg     99.2    22        187.5            165           257.5           610         372.466           413.4    363.8    567.7     1344.8

     110kg Open
1    Erik Mawhorter         IN     110kg    101.9    24         260             190            230            680         410.788           573.2    418.9    507.1     1499.1
2    John Fawbush           KY     110kg    104.1    24         200            142.5           235           577.5        346.154           440.9    314.2    518.1     1273.2

     125kg Open
1    Christopher Hogue      IN     125kg    123.1    25         165            97.5           207.5           470         268.699           363.8    214.9    457.5     1036.2

     SHW Open
1    Christopher Stinson    IN     SHW      155.9    28         215            112.5           215           542.5        298.538            474      248      474       1196

     82.5kg Submaster
1    Matthew Sarzynski      IN     82.5kg     76     35         155            82.5            190           427.5        301.858           341.7    181.9    418.9      942.5

     82.5kg Master 60-64
1    Michael Stevens        IN     82.5kg    82.3    64        117.5            85            157.5           360         241.524 350.21     259     187.4    347.2      793.7

     90kg Master 40-44
1    Mike Biggs             IN     90kg      89.6    43         150             130           207.5          487.5        311.903 321.571   330.7    286.6    457.5     1074.7

     90kg Master 80+
1    Robert Collester       IN     90kg      88.2    85          45             55             105            205         132.246 302.445    99.2    121.3    231.5      451.9

     100kg Master 45-49
1    James Biggs            IN     100kg     98.7    48        147.5            135           227.5           510         312.018 342.284   325.2    297.6    501.5     1124.3
                                                         USPA Drug Tested Unbreakable Warrior June 15, 2019 Plainfield, IN

                                       Wt                                                                                    Wilks     McC
             Name             State            Weight   Age      SQ Kg           BP Kg          DL Kg         Total Kg
                                      class                                                                                  Total     Total   SQ Lbs   BP Lbs   DL Lbs   Total Lbs

    125kg Master 45-49
1   James Morris               TX     125kg     112     49         110            142.5           215           467.5        273.628 304.548   242.5    314.2     474      1030.7

                                                                               4th: 172.5

    140kg Master 60-64
1   Wayne Hammes               IA     140kg    130.5    60        182.5          167.5            250            600         339.12 454.421    402.3    369.3    551.2     1322.8
                                                                               4th: 172.5

    Men Classic Raw Powerlifting
    100kg Jr 18-19
1   Matthew Tucker            IN      100kg     99.8    19         185             115           227.5          527.5         321.3            407.9    253.5    501.5     1162.9

    82.5kg Open
1   Micah Thomas               IN     82.5kg    81.2    24        227.5           137.5          247.5          612.5        414.295           501.5    303.1    545.6     1350.3

    125kg Open
1   Nick Johnson               IN     125kg    123.3    29        267.5            150           287.5           705         402.908           589.7    330.7    633.8     1554.2

    Men Single Ply Powerlifting
    125kg Master 55-59
1   Randy Naccarato             IN    125kg    119.6    57         190             150            240            580         333.732 423.172   418.9    330.7    529.1     1278.7

    Men Raw Bench Only
    67.5kg Open
1   Justin Back                IN     67.5kg    65.1    28                         115                           115         91.333                     253.5               253.5

    110kg Open
1   Kurt Morris                IN     110kg    107.5    39                         190                           190         112.632                    418.9               418.9

    110kg Submaster
1   Kurt Morris                IN     110kg    107.5    39                         190                           190         112.632                    418.9               418.9

    100kg Master 60-64
1   Gene Dura                  IN     100kg      98     60                        132.5                         132.5        81.302 108.945             292.1               292.1

    125kg Master 45-49
1   James Morris               TX     125kg     112     49                        142.5                         142.5        83.405    92.83            314.2               314.2

    125kg Master 50-54
1   Daryl Funk                 OH     125kg    121.5    52                        200                            200         114.66 133.579             440.9               440.9
                                                                                4th: 220
                                                                USPA Drug Tested Unbreakable Warrior June 15, 2019 Plainfield, IN

                                          Wt                                                                                        Wilks      McC
              Name              State              Weight      Age      SQ Kg           BP Kg          DL Kg         Total Kg
                                         class                                                                                      Total      Total    SQ Lbs   BP Lbs   DL Lbs   Total Lbs
     Men Raw Deadlift Only
     67.5kg Jr 18-19
1    Ryan Hueseman               IN      67.5kg     66.9        19                                      172.5          172.5        133.964                               380.3      380.3

     67.5kg Open
1    Justin Back                 IN      67.5kg     65.1        28                                      187.5          187.5        148.913                               413.4      413.4
2    Ryan Hueseman               IN      67.5kg     66.9        19                                      172.5          172.5        133.964                               380.3      380.3

     90kg Open
1    Jake Monroe                 IN      90kg       88.8        31                                      292.5          292.5        188.019                               644.8      644.8

     67.5kg Master 65-69
DQ   Jim Springer                IN      67.5kg     65.6        66                                         0             0            0          0                          0          0

     125kg Master 50-54
DQ   Daryl Funk                  OH      125kg      121.5       52                                         0             0            0          0                          0          0

     140kg Master 60-64
1    Wayne Hammes                IA      140kg      130.5       60                                       250            250          141.3    189.342                     551.2      551.2

     Men Raw Push-Pull
     110kg Master 70-74
1    Dean Farmer                 IN      110kg      100.9       70                       77.5            160           237.5        144.02 236.913               170.9    352.7      523.6


     Best Lifters:
     Naz Salman- Open Women Raw
     Deon Casey- Open Men Raw
     Kaleb Greener- Jr Men Raw
     Wayne Hammes- Master Men Raw

     Meet Director: Cody Robbins

     Announcer: Mike Coe

     Food Sponsor: Waffle House

     Thank you to our referees:
     International: Arthur Wooten
     National: Cody Robbins and Justin Jackson
     State: Melissa Gustafson, Kristen Norris, Brandi Sneed, Emily Adams, Liz Stewart and Jorge Martinez

     Thank you to our Spotters and loaders:
     Steven Vivice, Kate Ashby, Ethan Greiner, Drew Greiner and Tyler Maple
