Event,Sex,Name,State,BodyweightKg,WeightClassKg,Division,Best3SquatKg,Best3BenchKg,Best3DeadliftKg,TotalKg,Equipment,Place
SBD,F,Sylvia Stockall-Douglas,BC,60.7,63,Masters 3,95,72.5,137.5,305,Single-ply,1
SBD,M,Nicholas Tunzi,BC,85,93,Sub-Juniors,227.5,110,239,576.5,Raw,1
SBD,M,Luc Renaud,BC,91.2,93,Sub-Juniors,182.5,122.5,197.5,502.5,Raw,2
SBD,M,Martin Nikolov,BC,80.2,83,Sub-Juniors,185,120,190,495,Raw,1
SBD,M,Jackson Forbes,BC,82.1,83,Sub-Juniors,160,80,195,435,Raw,2
SBD,M,Nicholas Skabeikis,BC,69.5,74,Sub-Juniors,120,95,192.5,407.5,Raw,2
SBD,M,Mandeep Shoker,BC,73.2,74,Sub-Juniors,115,75,160,350,Raw,3
SBD,M,Damian Hu,BC,73.2,74,Sub-Juniors,195,123,227.5,545.5,Raw,1
SBD,F,Hannah Sjodin,BC,62.5,63,Sub-Juniors,75,37.5,97.5,210,Raw,2
SBD,F,Emily Doyle,BC,61.9,63,Sub-Juniors,95,50,122.5,267.5,Raw,1
SBD,M,Manuel Wallner,BC,90.8,93,Open,130,80,150,360,Raw,3
SBD,M,Dylan Smith,BC,88.2,93,Open,165,102.5,190,457.5,Raw,2
SBD,M,Chris De Jesus,BC,86.7,93,Open,202.5,135,207.5,545,Raw,1
SBD,F,Elizabeth Farquharson,BC,96.5,84+,Open,127.5,60,150,337.5,Raw,2
SBD,F,Alexandria Schellenberg,BC,87.8,84+,Open,142.5,75,155,372.5,Raw,1
SBD,F,Kate Felmark,BC,83.1,84,Open,122.5,55,155,332.5,Raw,2
SBD,F,Karen Lewis,BC,81.2,84,Open,137.5,80,160,377.5,Raw,1
SBD,F,Alisha Fairbairn,BC,78.9,84,Open,102.5,55,142.5,300,Raw,3
SBD,M,Wissam Nassrallah,BC,81,83,Open,160,105,220,485,Raw,3
SBD,M,Steven O Mahony,BC,82.7,83,Open,165,100,205,470,Raw,4
SBD,M,Henry Vu-Michaelson,BC,79.3,83,Open,222.5,145,240,607.5,Raw,1
SBD,M,Eric Klein,BC,81.8,83,Open,192.5,142.5,220,555,Raw,2
SBD,M,Gurpreet Rai,BC,72.7,74,Open,145,105,210,460,Raw,2
SBD,M,Gabriel Chan,BC,73.6,74,Open,150,120,190,460,Raw,3
SBD,M,Amado Cruz,BC,73,74,Open,200,122.5,227.5,550,Raw,1
SBD,F,Sara Del Castillo,BC,70,72,Open,120,52.5,165,337.5,Raw,5
SBD,F,Michelle Gnyra,BC,70.7,72,Open,150,70,150,370,Raw,2
SBD,F,Marina Misuric,BC,69.8,72,Open,145,72.5,165,382.5,Raw,1
SBD,F,Katie Galliazzo,BC,69.5,72,Open,112.5,75,145,332.5,Raw,6
SBD,F,Jennifer Luther-Thomas,BC,69,72,Open,145,62.5,145,352.5,Raw,3
SBD,F,Caitlin Chan-McLeod,BC,67.7,72,Open,125,62.5,150,337.5,Raw,4
SBD,M,Ryun Laniec,BC,65.6,66,Open,192.5,120,215,527.5,Raw,1
SBD,F,Taylor Mason,BC,61.5,63,Open,120,55,135,310,Raw,2
SBD,F,Ruth Clemens,BC,61.3,63,Open,95,62.5,135,292.5,Raw,3
SBD,F,Mercedes Palumbo,BC,62.1,63,Open,75,50,92.5,217.5,Raw,5
SBD,F,Elysee Wong,BC,62.8,63,Open,115,70,140,325,Raw,1
SBD,F,Amanda Chow,BC,60.2,63,Open,95,50,97.5,242.5,Raw,4
SBD,M,Chapman Kwan,BC,58.3,59,Open,173.5,115,185,473.5,Raw,1
SBD,F,Michal Arjun,BC,55.4,57,Open,107.5,55,127.5,290,Raw,2
SBD,F,Jessica Kalynn,BC,55.6,57,Open,102.5,70,137.5,310,Raw,1
SBD,F,Sabina Wu,BC,51.2,52,Open,112.5,67.5,127.5,307.5,Raw,1
SBD,F,Dionne Peralta,BC,47,47,Open,75,40,87.5,202.5,Raw,1
SBD,M,Frank Lalonde,BC,134.5,120+,Open,210,95,222.5,527.5,Raw,1
SBD,M,Patrick Farkas,BC,116.1,120,Open,245,182.5,275,702.5,Raw,1
SBD,M,Judah Michael,BC,109.7,120,Open,205,165,255,625,Raw,2
SBD,M,Jorge Icabalceta,BC,111.5,120,Open,197.5,112.5,230,540,Raw,4
SBD,M,Greg Kowatski,BC,111.7,120,Open,220,142.5,237,600,Raw,3
SBD,M,Sergio Lourenco,BC,104,105,Open,190,120,222.5,532.5,Raw,3
SBD,M,Gavan Takhar,BC,104.3,105,Open,130,77.5,147.5,355,Raw,4
SBD,M,Drew Byron,BC,100.9,105,Open,160,125,25,310,Raw,5
SBD,M,Craig Bearss,BC,103.6,105,Open,250,150,285,685,Raw,1
SBD,M,Cory Rollings,BC,103.2,105,Open,220,150,260,630,Raw,2
SBD,F,Sukhdev Kan,BC,70.4,72,Masters 2,72.5,55,120,247.5,Raw,1
SBD,F,Teresa Taylor,BC,56.3,57,Masters 2,55,37.5,95,187.5,Raw,1
SBD,F,Tara Bohune,BC,64.8,72,Masters 1,77.5,52.5,130,260,Raw,1
SBD,F,Leanne McLean,BC,68.5,72,Masters 1,77.5,52.5,95,225,Raw,3
SBD,F,Cory Murray,BC,70.6,72,Masters 1,80,55,107.5,242.5,Raw,2
SBD,F,Melanie Ahlsten,BC,55.5,57,Masters 1,102.5,65,132.5,300,Raw,1
SBD,M,Tobyn Kidd,BC,99.8,105,Masters 1,170,110,195,475,Raw,1
SBD,M,Bryan Yuen,BC,92,93,Juniors,235,125,220,580,Raw,1
SBD,F,Connie Kuang,BC,74.5,84,Juniors,112.5,47.5,115,275,Raw,1
SBD,M,Patrick Mok,BC,79.4,83,Juniors,187.5,90,190,467.5,Raw,3
SBD,M,Jason Lok,BC,79.3,83,Juniors,190,117.5,175,482.5,Raw,2
SBD,M,Ian Witte,BC,81.8,83,Juniors,170,107.5,220,497.5,Raw,1
SBD,M,Vasyl Frenchko,BC,71.9,74,Juniors,205,135,205,545,Raw,1
SBD,M,Michael Lee,BC,73.1,74,Juniors,185,107.5,187.5,480,Raw,3
SBD,M,Matteo Marra,BC,73.3,74,Juniors,162.5,95,190,447.5,Raw,4
SBD,M,Emmanuel Avenido,BC,72.8,74,Juniors,185,100,212.5,497.5,Raw,2
SBD,F,Kelly Harden,BC,70.7,72,Juniors,122.5,57.5,137.5,317.5,Raw,1
SBD,F,Jolina Nasol,BC,63.4,72,Juniors,110,50,127.5,287.5,Raw,2
SBD,M,Zachary Jackson,BC,66,66,Juniors,185,127.5,235,547.5,Raw,1
SBD,M,Justin Chui,BC,60,66,Juniors,135,77.5,175,387.5,Raw,3
SBD,M,Aldrin De Asis,BC,63.4,66,Juniors,150,95,195,440,Raw,2
SBD,F,Sylvia Liu,BC,59.6,63,Juniors,110,50,122.5,282.5,Raw,2
SBD,F,Angela Gourley,BC,62,63,Juniors,100,57.5,127.5,285,Raw,1
SBD,F,Jazlyn Lazar,BC,55.8,57,Juniors,117.5,45,130,292.5,Raw,1
SBD,M,John Navarro,BC,108.6,120,Juniors,227.5,142.5,247.5,617.5,Raw,1
SBD,M,Jeffrey Nguyen,BC,99.6,105,Juniors,185,127.5,215,527.5,Raw,1
