Division,WeightClassKg,Place,Name,Team,BodyweightKg,Best3SquatKg,Best3BenchKg,Best3DeadliftKg,TotalKg,Equipment,Event,Sex
Boys,51.71,1,Rodney Barnes,Everman,46.08,117.93,63.5,127.01,308.44,Single-ply,SBD,M
Boys,55.79,2,Kyle Lovejoy,Burleson Centennial,51.8,122.47,54.43,115.67,292.57,Single-ply,SBD,M
Boys,51.71,3,Michael Claus,Midlothian,50.71,104.33,63.5,117.93,285.76,Single-ply,SBD,M
Boys,51.71,4,Robert Parra,Carrollton Creekview,50.53,106.59,49.9,122.47,278.96,Single-ply,SBD,M
Boys,51.71,5,Tyler Harden,Burleson,50.98,90.72,54.43,108.86,254.01,Single-ply,SBD,M
Boys,51.71,6,Alejandro Cosia,Fort Worth North Side,51.44,90.72,40.82,104.33,235.87,Single-ply,SBD,M
Boys,51.71,7,Jordan Bare,Kennedale,45.54,74.84,31.75,81.65,188.24,Single-ply,SBD,M
Boys,59.87,1,Ashton Williams,Everman,55.88,149.69,79.38,176.9,405.97,Single-ply,SBD,M
Boys,55.79,2,Zach Ramirez,Decatur,55.79,151.95,72.57,167.83,392.36,Single-ply,SBD,M
Boys,55.79,3,Shang Bou,Fort Worth Paschal,55.16,129.27,77.11,163.29,369.68,Single-ply,SBD,M
Boys,55.79,4,Chris Alcantar,Carrollton Creekview,54.88,129.27,79.38,158.76,367.41,Single-ply,SBD,M
Boys,59.87,5,Austin Blalock,Burleson Centennial,56.02,127.01,79.38,151.95,358.34,Single-ply,SBD,M
Boys,59.87,6,Nick Roberts,Arlington Seguin,56.02,129.27,68.04,154.22,351.53,Single-ply,SBD,M
Boys,59.87,7,Preston Stripling,Midlothian,56.02,129.27,79.38,136.08,344.73,Single-ply,SBD,M
Boys,55.79,8,Kevin Okolb,Garland Rowlett,55.52,106.59,65.77,142.88,315.25,Single-ply,SBD,M
Boys,55.79,9,Nick Morrow,Midlothian,55.7,113.4,56.7,111.13,281.23,Single-ply,SBD,M
Boys,55.79,10,Mason Mott,Midlothian,53.61,90.72,58.97,120.2,269.89,Single-ply,SBD,M
Boys,55.79,DQ,Jordan Mosley,North Crowley,54.52,83.91,,,,Single-ply,SBD,M
Boys,59.87,1,Alejandro Olmos,Everman,59.24,172.37,113.4,161.03,446.79,Single-ply,SBD,M
Boys,59.87,2,Chase Porter,Burleson,59.15,145.15,99.79,165.56,410.5,Single-ply,SBD,M
Boys,59.87,3,Raul Rodriguez,Hurst Bell,58.15,154.22,88.45,149.69,392.36,Single-ply,SBD,M
Boys,59.87,4,Joe Sosa,Fort Worth North Side,58.97,133.81,70.31,158.76,362.87,Single-ply,SBD,M
Boys,67.13,5,Tj Napier,Arlington Seguin,60.06,151.95,74.84,124.74,351.53,Single-ply,SBD,M
Boys,67.13,6,Simon Lafund,Garland Rowlett,60.06,115.67,70.31,147.42,333.39,Single-ply,SBD,M
Boys,67.13,7,Brian Latigo,Fort Worth Western Hills,59.96,83.91,65.77,147.42,297.1,Single-ply,SBD,M
Boys,59.87,DQ,Margarito Lozano,Crowley,59.87,129.27,,,,Single-ply,SBD,M
Boys,67.13,1,Stefan Sommer,Lewisville The Colony,64.77,204.12,117.93,215.46,537.51,Single-ply,SBD,M
Boys,74.84,2,Essix Lightfoot,Everman,67.31,217.72,97.52,204.12,519.36,Single-ply,SBD,M
Boys,67.13,3,Jared Clark,Burleson,66.86,204.12,113.4,181.44,498.95,Single-ply,SBD,M
Boys,67.13,4,Kenneth Stafford,Everman,66.59,190.51,106.59,195.04,492.15,Single-ply,SBD,M
Boys,74.84,5,Brandon Marsh,Burleson Centennial,67.31,185.97,113.4,181.44,480.81,Single-ply,SBD,M
Boys,67.13,6,Cole Chambless,Haltom City Haltom,65.68,183.7,104.33,181.44,469.47,Single-ply,SBD,M
Boys,67.13,7,Michael Seay,Burleson Centennial,67.13,183.7,108.86,172.37,464.93,Single-ply,SBD,M
Boys,67.13,8,Ryley Paroulek,Kennedale,66.41,158.76,97.52,197.31,453.59,Single-ply,SBD,M
Boys,74.84,9,Ronald Ford,North Crowley,67.31,181.44,90.72,163.29,435.45,Single-ply,SBD,M
Boys,67.13,10,Jeffery McLeod,Garland Rowlett,65.59,147.42,88.45,192.78,428.64,Single-ply,SBD,M
Boys,67.13,11,Jay Barton,Hurst Bell,63.41,142.88,97.52,163.29,403.7,Single-ply,SBD,M
Boys,67.13,12,Tyson Henton,Everman,64.68,170.1,70.31,163.29,403.7,Single-ply,SBD,M
Boys,67.13,13,Dempsey Dumprie,Midlothian,64.05,145.15,86.18,154.22,385.55,Single-ply,SBD,M
Boys,67.13,14,Joey Opitz,Haltom City Haltom,63.87,147.42,72.57,149.69,369.68,Single-ply,SBD,M
Boys,67.13,15,Andrew Linelton,Haltom City Haltom,64.77,124.74,88.45,154.22,367.41,Single-ply,SBD,M
Boys,67.13,16,Daman Chatmon,Cedar Hill,66.86,142.88,72.57,151.95,367.41,Single-ply,SBD,M
Boys,67.13,17,Isaac Salazar,Arlington Seguin,67.13,142.88,77.11,145.15,365.14,Single-ply,SBD,M
Boys,67.13,18,Jacob Montes,Midlothian,65.41,127.01,83.91,147.42,358.34,Single-ply,SBD,M
Boys,67.13,19,Ivan Oropeza,Fort Worth North Side,60.24,136.08,70.31,142.88,349.27,Single-ply,SBD,M
Boys,67.13,20,Michael Royals,Burleson,63.59,136.08,61.23,120.2,317.51,Single-ply,SBD,M
Boys,67.13,21,Nelson Gungura,Everman,64.05,127.01,63.5,113.4,303.91,Single-ply,SBD,M
Boys,67.13,22,Marc Martinez,Carrollton Creekview,62.14,83.91,61.23,90.72,235.87,Single-ply,SBD,M
Boys,67.13,DQ,Dontavias Cocksey,Haltom City Haltom,66.68,,,,,Single-ply,SBD,M
Boys,67.13,DQ,Trey Williams,Kennedale,66.86,,,,,Single-ply,SBD,M
Boys,67.13,DQ,Stephon Brooks,Lewisville The Colony,63.23,136.08,,,,Single-ply,SBD,M
Boys,74.84,1,Anthony Wagner,Garland Rowlett,72.21,199.58,131.54,210.92,542.04,Single-ply,SBD,M
Boys,74.84,2,Royce Richichi,Lewisville The Colony,74.21,213.19,120.2,204.12,537.51,Single-ply,SBD,M
Boys,74.84,3,Frank Perdomo,Lewisville The Colony,73.75,195.04,104.33,226.8,526.17,Single-ply,SBD,M
Boys,74.84,4,Pat White,Lewisville The Colony,68.67,201.85,99.79,217.72,519.36,Single-ply,SBD,M
Boys,74.84,5,Ben Adams,Cedar Hill,72.67,188.24,120.2,208.65,517.1,Single-ply,SBD,M
Boys,74.84,6,Dakota Kundert,Burleson,71.58,183.7,129.27,199.58,512.56,Single-ply,SBD,M
Boys,74.84,7,Jake Mears,Joshua,68.67,181.44,104.33,204.12,489.88,Single-ply,SBD,M
Boys,74.84,8,Jalun Watkins,Kennedale,71.12,199.58,88.45,188.24,476.27,Single-ply,SBD,M
Boys,74.84,9,Joe Dederichs,Fort Worth Paschal,73.39,170.1,108.86,185.97,464.93,Single-ply,SBD,M
Boys,74.84,10,Corey Carter,Fort Worth Western Hills,68.31,151.95,90.72,192.78,435.45,Single-ply,SBD,M
Boys,74.84,11,Tariq Mustafaq,Midlothian,73.66,165.56,88.45,172.37,426.38,Single-ply,SBD,M
Boys,74.84,12,Jesus Padilla,Fort Worth North Side,72.21,154.22,102.06,163.29,419.57,Single-ply,SBD,M
Boys,74.84,13,Dean Strouth,Midlothian,72.39,149.69,83.91,170.1,403.7,Single-ply,SBD,M
Boys,74.84,14,Coiderius Cookey,Haltom City Haltom,73.39,145.15,97.52,158.76,401.43,Single-ply,SBD,M
Boys,74.84,15,Dylan Clary,Midlothian,70.85,136.08,95.25,158.76,390.09,Single-ply,SBD,M
Boys,74.84,16,Bodie Fry,Midlothian,69.76,138.35,79.38,165.56,383.29,Single-ply,SBD,M
Boys,74.84,17,Cardae Cavley,Everman,72.67,136.08,86.18,151.95,374.21,Single-ply,SBD,M
Boys,74.84,18,Austin Powell,Fort Worth Western Hills,70.76,151.95,77.11,142.88,371.95,Single-ply,SBD,M
Boys,82.1,19,Tyler Willis,Cedar Hill,74.93,129.27,97.52,145.15,371.95,Single-ply,SBD,M
Boys,74.84,20,David Leal,Fort Worth Paschal,72.67,129.27,81.65,158.76,369.68,Single-ply,SBD,M
Boys,74.84,21,Tommy O'Neil,Fort Worth Paschal,74.03,117.93,63.5,129.27,310.71,Single-ply,SBD,M
Boys,74.84,DQ,Josue Hernandez,Fort Worth North Side,72.67,154.22,,,,Single-ply,SBD,M
Boys,74.84,DQ,Dejah Whatley,Fort Worth Western Hills,70.49,167.83,,,,Single-ply,SBD,M
Boys,74.84,DQ,David Brown,Hurst Bell,72.76,,122.47,,,Single-ply,SBD,M
Boys,74.84,DQ,Colin Radford,Joshua,72.21,163.29,,,,Single-ply,SBD,M
Boys,74.84,DQ,Ab Lacy,Cedar Hill,74.21,136.08,,,,Single-ply,SBD,M
Boys,74.84,DQ,Regan Roberts,Crowley,69.31,156.49,,,,Single-ply,SBD,M
Boys,74.84,DQ,Charles Badger,Everman,71.21,129.27,,,,Single-ply,SBD,M
Boys,74.84,DQ,Nick Marshall,North Crowley,74.66,,,,,Single-ply,SBD,M
Boys,74.84,DQ,Tre Burns,Burleson Centennial,71.94,163.29,95.25,,,Single-ply,SBD,M
Boys,82.1,1,Devin Walker,Everman,76.84,238.14,136.08,206.38,580.6,Single-ply,SBD,M
Boys,82.1,2,Blake Dunham,Burleson Centennial,80.83,217.72,127.01,222.26,566.99,Single-ply,SBD,M
Boys,82.1,3,Sydney Lester,Crowley,79.02,170.1,131.54,183.7,485.34,Single-ply,SBD,M
Boys,82.1,4,Edgar Gomez,Garland Rowlett,80.1,170.1,115.67,192.78,478.54,Single-ply,SBD,M
Boys,82.1,5,Landen Whitlock,Burleson,79.56,174.63,124.74,174.63,474,Single-ply,SBD,M
Boys,82.1,6,Yama Asmati,Kennedale,81.74,179.17,99.79,195.04,474,Single-ply,SBD,M
Boys,82.1,7,Patrick Eisner,Burleson Centennial,79.38,179.17,106.59,185.97,471.74,Single-ply,SBD,M
Boys,82.1,8,Aaron Stevenson,Fort Worth Western Hills,81.74,174.63,113.4,183.7,471.74,Single-ply,SBD,M
Boys,82.1,9,Thomas Uriostegui,Kennedale,79.02,154.22,122.47,190.51,467.2,Single-ply,SBD,M
Boys,89.81,10,Desmond Allison,North Crowley,82.28,197.31,99.79,165.56,462.66,Single-ply,SBD,M
Boys,82.1,11,Nathan Ferguson,Burleson Centennial,79.38,176.9,90.72,179.17,446.79,Single-ply,SBD,M
Boys,82.1,12,Many Thonas,Crowley,79.2,163.29,113.4,167.83,444.52,Single-ply,SBD,M
Boys,82.1,13,Carnes Andre,Burleson,79.65,174.63,81.65,185.97,442.25,Single-ply,SBD,M
Boys,82.1,14,Micah Seawright,Burleson,79.83,142.88,90.72,181.44,415.04,Single-ply,SBD,M
Boys,82.1,15,Tim Hutchins,Cedar Hill,79.92,158.76,86.18,170.1,415.04,Single-ply,SBD,M
Boys,82.1,16,Clay Barrientos,Midlothian,81.92,145.15,102.06,163.29,410.5,Single-ply,SBD,M
Boys,82.1,17,Malcolm Frederica,Carrollton Creekview,75.39,154.22,90.72,158.76,403.7,Single-ply,SBD,M
Boys,82.1,18,Ruben Angeles,Fort Worth North Side,80.65,127.01,97.52,170.1,394.63,Single-ply,SBD,M
Boys,82.1,19,Quindell Daniels,Midlothian,78.02,138.35,88.45,158.76,385.55,Single-ply,SBD,M
Boys,82.1,20,Brock Reaves,Decatur,78.47,147.42,70.31,158.76,376.48,Single-ply,SBD,M
Boys,82.1,21,Andrew Lacy,Cedar Hill,81.83,145.15,86.18,136.08,367.41,Single-ply,SBD,M
Boys,82.1,22,Luis Gonzales,Carrollton Creekview,76.2,138.35,74.84,129.27,342.46,Single-ply,SBD,M
Boys,82.1,DQ,Devin Barnes,Carrollton Creekview,75.48,,,,,Single-ply,SBD,M
Boys,82.1,DQ,Tucker Morris,Decatur,79.29,97.52,,,,Single-ply,SBD,M
Boys,89.81,DQ,Terron Thompson,Cedar Hill,82.28,,,,,Single-ply,SBD,M
Boys,82.1,DQ,Anthony Ho,North Crowley,80.2,,,,,Single-ply,SBD,M
Boys,89.81,1,Chris Carnes,Burleson,87.82,242.67,156.49,229.06,628.23,Single-ply,SBD,M
Boys,89.81,2,KJ Evans,Joshua,83.55,231.33,149.69,226.8,607.81,Single-ply,SBD,M
Boys,89.81,3,Mike Denton,Lewisville The Colony,88.63,249.48,108.86,242.67,601.01,Single-ply,SBD,M
Boys,99.79,4,Jacob Kennedy,Everman,89.9,226.8,136.08,238.14,601.01,Single-ply,SBD,M
Boys,89.81,5,Josh Whitworth,Joshua,89.81,226.8,136.08,235.87,598.74,Single-ply,SBD,M
Boys,99.79,6,Justin Campos,Fort Worth North Side,89.99,238.14,140.61,219.99,598.74,Single-ply,SBD,M
Boys,89.81,7,Marcus Stafford,Everman,88.09,244.94,131.54,213.19,589.67,Single-ply,SBD,M
Boys,99.79,8,Laurence Cisneros,Burleson Centennial,90.04,208.65,120.2,233.6,562.45,Single-ply,SBD,M
Boys,89.81,9,Jon Green,Hurst Bell,86.64,181.44,122.47,226.8,530.7,Single-ply,SBD,M
Boys,89.81,10,Ryan Tharp,Hurst Bell,86.45,192.78,138.35,197.31,528.44,Single-ply,SBD,M
Boys,89.81,11,Braelon Schwartz,Kennedale,87.63,192.78,115.67,215.46,523.9,Single-ply,SBD,M
Boys,89.81,12,Foscilar Zachary,Everman,87.63,226.8,115.67,181.44,523.9,Single-ply,SBD,M
Boys,89.81,13,Darian Sumberlin,Everman,87.09,208.65,133.81,176.9,519.36,Single-ply,SBD,M
Boys,89.81,14,Reggie Austin,North Crowley,86.91,183.7,136.08,183.7,503.49,Single-ply,SBD,M
Boys,89.81,15,Caleb Shaw,Midlothian,87.91,208.65,117.93,176.9,503.49,Single-ply,SBD,M
Boys,89.81,16,Josh Garcias,Carrollton Creekview,86.91,181.44,122.47,188.24,492.15,Single-ply,SBD,M
Boys,89.81,17,Najee Mustafa,Midlothian,83.82,181.44,108.86,183.7,474,Single-ply,SBD,M
Boys,89.81,18,Colin Garcia,Midlothian,85.82,181.44,97.52,185.97,464.93,Single-ply,SBD,M
Boys,89.81,19,Jaylan Cruz,Haltom City Haltom,84.82,161.03,120.2,176.9,458.13,Single-ply,SBD,M
Boys,89.81,20,Chris Jones #19,Arlington Seguin,85.73,181.44,113.4,156.49,451.32,Single-ply,SBD,M
Boys,89.81,21,Austin Rosenaur,Burleson,88.63,158.76,102.06,183.7,444.52,Single-ply,SBD,M
Boys,89.81,22,John Walser,Midlothian,86.18,156.49,117.93,158.76,433.18,Single-ply,SBD,M
Boys,89.81,23,Salis Kazadi,Haltom City Haltom,88.54,151.95,113.4,163.29,428.64,Single-ply,SBD,M
Boys,89.81,24,Josh Tate,Cedar Hill,88.45,158.76,92.99,170.1,421.84,Single-ply,SBD,M
Boys,89.81,25,Johnathan Kowas,Fort Worth North Side,88.36,163.29,79.38,174.63,417.3,Single-ply,SBD,M
Boys,89.81,26,Zach Whinsand,Midlothian,87.91,133.81,95.25,154.22,383.29,Single-ply,SBD,M
Boys,89.81,27,Jose Diaz,Joshua,84.1,151.95,83.91,142.88,378.75,Single-ply,SBD,M
Boys,89.81,28,Carlos Lopez,Fort Worth Paschal,88.54,142.88,81.65,151.95,376.48,Single-ply,SBD,M
Boys,89.81,29,Angus Pebworth,Midlothian,87.27,124.74,90.72,158.76,374.21,Single-ply,SBD,M
Boys,89.81,30,Logan Weaver,Burleson,85.91,113.4,83.91,149.69,347,Single-ply,SBD,M
Boys,89.81,31,Randall Vasquez,Fort Worth Western Hills,84.01,90.72,88.45,165.56,344.73,Single-ply,SBD,M
Boys,89.81,DQ,Avion Fletcher,Everman,88.9,,,,,Single-ply,SBD,M
Boys,99.79,1,Isaiah Hinton,Lewisville The Colony,97.89,260.82,147.42,238.14,646.37,Single-ply,SBD,M
Boys,99.79,2,Cameron Chamberlin,Burleson,94.89,247.21,154.22,226.8,628.23,Single-ply,SBD,M
Boys,99.79,3,Majia Diego,Everman,94.53,260.82,117.93,244.94,623.69,Single-ply,SBD,M
Boys,99.79,4,Kameron Salley,Hurst Bell,97.25,247.21,142.88,210.92,601.01,Single-ply,SBD,M
Boys,99.79,5,Jaquan Richmond,North Crowley,96.98,238.14,142.88,210.92,591.94,Single-ply,SBD,M
Boys,99.79,6,Torian Love,Fort Worth Western Hills,97.43,229.06,113.4,219.99,562.45,Single-ply,SBD,M
Boys,99.79,7,Calvin Estrada,Garland Rowlett,93.53,217.72,127.01,208.65,553.38,Single-ply,SBD,M
Boys,99.79,8,Karim Beltloul,Hurst Bell,94.08,210.92,124.74,217.72,553.38,Single-ply,SBD,M
Boys,99.79,9,Joey Clegg,Garland Rowlett,93.53,195.04,136.08,199.58,530.7,Single-ply,SBD,M
Boys,99.79,10,Rashawn Maralde,Arlington Seguin,91.63,190.51,117.93,204.12,512.56,Single-ply,SBD,M
Boys,99.79,11,Landon Jones,Everman,93.17,204.12,104.33,192.78,501.22,Single-ply,SBD,M
Boys,99.79,12,Tc Quintana,Burleson Centennial,98.79,190.51,102.06,190.51,483.08,Single-ply,SBD,M
Boys,99.79,13,Dakota Williams,Decatur,99.25,208.65,95.25,172.37,476.27,Single-ply,SBD,M
Boys,99.79,14,Eric Crowley,Haltom City Haltom,93.26,188.24,120.2,163.29,471.74,Single-ply,SBD,M
Boys,99.79,15,Cody Heckman,Joshua,96.8,163.29,115.67,192.78,471.74,Single-ply,SBD,M
Boys,99.79,16,Caden Patterson,Burleson,94.26,181.44,115.67,170.1,467.2,Single-ply,SBD,M
Boys,99.79,17,Andrew Young,Joshua,95.98,204.12,92.99,167.83,464.93,Single-ply,SBD,M
Boys,99.79,18,Daniel Ambriz,Everman,95.25,199.58,86.18,176.9,462.66,Single-ply,SBD,M
Boys,99.79,19,Lawton Anderson,Midlothian,97.7,181.44,113.4,167.83,462.66,Single-ply,SBD,M
Boys,99.79,20,Chauncey Rich,Haltom City Haltom,93.17,183.7,102.06,170.1,455.86,Single-ply,SBD,M
Boys,99.79,21,Devin Golden,Midlothian,95.07,170.1,113.4,165.56,449.06,Single-ply,SBD,M
Boys,99.79,22,Dakota Dowthitt,Burleson,91.17,156.49,102.06,167.83,426.38,Single-ply,SBD,M
Boys,99.79,23,Caleb Dobson,Midlothian,96.52,151.95,102.06,170.1,424.11,Single-ply,SBD,M
Boys,99.79,24,Thai Ly,Crowley,98.97,149.69,97.52,158.76,405.97,Single-ply,SBD,M
Boys,99.79,25,Antonio Tiliano,Fort Worth South Hills,97.98,151.95,79.38,147.42,378.75,Single-ply,SBD,M
Boys,99.79,DQ,Chris Maxey,Carrollton Creekview,95.53,,,,,Single-ply,SBD,M
Boys,109.77,1,Hunter Heins,Burleson,109.41,251.74,142.88,272.16,666.78,Single-ply,SBD,M
Boys,109.77,2,Tarius Hull,Haltom City Haltom,105.51,256.28,145.15,226.8,628.23,Single-ply,SBD,M
Boys,109.77,3,Koltyn Davis,Kennedale,107.86,224.53,140.61,215.46,580.6,Single-ply,SBD,M
Boys,109.77,4,Cruz Marquez,Joshua,105.23,208.65,111.13,213.19,532.97,Single-ply,SBD,M
Boys,109.77,5,Ty Underwood,Burleson Centennial,108.95,219.99,127.01,183.7,530.7,Single-ply,SBD,M
Boys,109.77,6,Nathan Ward,Kennedale,107.5,210.92,127.01,188.24,526.17,Single-ply,SBD,M
Boys,109.77,7,Dana Higginbutham,Burleson,108.59,192.78,127.01,195.04,514.83,Single-ply,SBD,M
Boys,109.77,8,Bijzon Brown,Lewisville The Colony,104.6,197.31,127.01,188.24,512.56,Single-ply,SBD,M
Boys,109.77,9,Felipe Aguiniga,Everman,105.05,192.78,129.27,188.24,510.29,Single-ply,SBD,M
Boys,109.77,10,Alex Canales,Hurst Bell,104.96,195.04,129.27,158.76,483.08,Single-ply,SBD,M
Boys,109.77,11,Trey Good,Joshua,103.24,190.51,106.59,174.63,471.74,Single-ply,SBD,M
Boys,109.77,12,Zak Mirza,Garland Rowlett,106.68,170.1,120.2,174.63,464.93,Single-ply,SBD,M
Boys,109.77,13,Matt Kieller,Fort Worth Paschal,104.87,183.7,108.86,170.1,462.66,Single-ply,SBD,M
Boys,109.77,14,Antonio Vargas,Arlington Seguin,106.78,185.97,90.72,181.44,458.13,Single-ply,SBD,M
Boys,109.77,15,Ben Anderson,Fort Worth Paschal,107.95,149.69,106.59,142.88,399.16,Single-ply,SBD,M
Boys,109.77,16,Daniel Lozano,Fort Worth South Hills,106.23,154.22,74.84,151.95,381.02,Single-ply,SBD,M
Boys,109.77,17,Jesus Perea,Fort Worth Paschal,109.13,147.42,74.84,151.95,374.21,Single-ply,SBD,M
Boys,109.77,18,Zack Collins,Arlington Seguin,103.51,127.01,65.77,158.76,351.53,Single-ply,SBD,M
Boys,109.77,DQ,Isaiah Suazo,Burleson Centennial,107.05,226.8,,,,Single-ply,SBD,M
Boys,124.74,DQ,Matt Kress,Burleson Centennial,110,,,,,Single-ply,SBD,M
Boys,109.77,DQ,Jason Chau,North Crowley,102.42,235.87,,,,Single-ply,SBD,M
Boys,124.74,1,Alex Fritz,Haltom City Haltom,119.2,317.51,158.76,274.42,750.7,Single-ply,SBD,M
Boys,124.74,2,Albert Willingham,Fort Worth Western Hills,112.85,265.35,185.97,222.26,673.58,Single-ply,SBD,M
Boys,124.74,3,Ivan Garciduenas,Burleson Centennial,122.56,267.62,154.22,229.06,650.91,Single-ply,SBD,M
Boys,124.74,4,John Zaragoza,Haltom City Haltom,113.94,260.82,145.15,226.8,632.76,Single-ply,SBD,M
Boys,124.74,5,Derrian Johnson,North Crowley,119.39,281.23,115.67,215.46,612.35,Single-ply,SBD,M
Boys,124.74,6,Daniel Kim,Lewisville The Colony,123.1,247.21,142.88,219.99,610.08,Single-ply,SBD,M
Boys,124.74,7,Geno Whitt,Burleson Centennial,124.74,249.48,127.01,219.99,596.47,Single-ply,SBD,M
Boys,124.74,8,Ethan Jones,Burleson,117.48,229.06,138.35,208.65,576.06,Single-ply,SBD,M
Boys,124.74,9,Colton Hostetler,Burleson Centennial,112.4,217.72,124.74,190.51,532.97,Single-ply,SBD,M
Boys,124.74,10,Quandre Scott,Fort Worth South Hills,120.11,210.92,133.81,183.7,528.44,Single-ply,SBD,M
Boys,124.74,11,Sean Patridge,Fort Worth Western Hills,121.74,208.65,102.06,206.38,517.1,Single-ply,SBD,M
Boys,124.74,12,Austin Crawford,Burleson,114.03,208.65,113.4,185.97,508.02,Single-ply,SBD,M
Boys,124.74,13,Reggie Elles,Arlington Seguin,115.67,204.12,113.4,170.1,487.61,Single-ply,SBD,M
Boys,124.74,14,Reggie Merritt,Cedar Hill,113.04,190.51,86.18,170.1,446.79,Single-ply,SBD,M
Boys,124.74,15,Bandon North,Midlothian,116.21,158.76,102.06,165.56,426.38,Single-ply,SBD,M
Boys,124.74,16,Reedom e,Arlington Seguin,114.94,156.49,72.57,172.37,401.43,Single-ply,SBD,M
Boys,124.74,17,Josh Saunders,Midlothian,110.5,163.29,97.52,136.08,396.89,Single-ply,SBD,M
Boys,124.74,DQ,Norlin Anderson,North Crowley,112.94,226.8,106.59,,,Single-ply,SBD,M
Boys,124.74+,1,Reggie Williams,Burleson Centennial,126.19,254.01,136.08,254.01,644.1,Single-ply,SBD,M
Boys,124.74+,2,Dylan Baldeschwiler,Burleson,131.18,249.48,158.76,213.19,621.42,Single-ply,SBD,M
Boys,124.74+,3,Julian Salmond,Fort Worth Western Hills,125.01,269.89,124.74,219.99,614.62,Single-ply,SBD,M
Boys,124.74+,4,Anthony Zapata,Everman,125.46,251.74,124.74,226.8,603.28,Single-ply,SBD,M
Boys,124.74+,5,Daryl Westbrook,Fort Worth South Hills,170.73,244.94,124.74,219.99,589.67,Single-ply,SBD,M
Boys,124.74+,6,Chandler Layer,Garland Rowlett,132.27,231.33,124.74,208.65,564.72,Single-ply,SBD,M
Boys,124.74+,7,Willie Jones,Cedar Hill,133.08,235.87,147.42,181.44,564.72,Single-ply,SBD,M
Boys,124.74+,8,Alex Garcia,Fort Worth South Hills,129.91,210.92,138.35,206.38,555.65,Single-ply,SBD,M
Boys,124.74+,9,Brent Caughron,Carrollton Creekview,141.34,226.8,131.54,192.78,551.11,Single-ply,SBD,M
Boys,124.74+,10,Caleb Riley,Joshua,130.82,217.72,131.54,199.58,548.85,Single-ply,SBD,M
Boys,124.74+,11,Kyle Green,Joshua,153.86,206.38,140.61,197.31,544.31,Single-ply,SBD,M
Boys,124.74+,12,Chris Hinton,Midlothian,132,210.92,108.86,185.97,505.76,Single-ply,SBD,M
Boys,124.74+,13,Michael Sottilotto,Kennedale,127.91,192.78,113.4,181.44,487.61,Single-ply,SBD,M
Boys,124.74+,14,Joey Stephens,Everman,132.99,204.12,102.06,163.29,469.47,Single-ply,SBD,M
Boys,124.74+,15,Robert Brown,North Crowley,149.59,183.7,111.13,163.29,458.13,Single-ply,SBD,M
Boys,124.74+,16,Jared Sanderson,Midlothian,132.54,181.44,83.91,163.29,428.64,Single-ply,SBD,M
Boys,124.74+,17,Malcolm Buckshia,Fort Worth Paschal,150.96,151.95,102.06,151.95,405.97,Single-ply,SBD,M
Boys,124.74+,18,Blake Hailey,Decatur,137.71,145.15,81.65,142.88,369.68,Single-ply,SBD,M
Boys,124.74+,DQ,Michael Enox,Haltom City Haltom,125.01,226.8,,,,Single-ply,SBD,M
