Name,WeightClassKg,Division,Equipment,Sex,Country,Best3SquatKg,Best3BenchKg,Best3DeadliftKg,Deadlift4Kg,TotalKg,Event,Place
Proulx,44,Open,Multi-ply,F,USA,,63.5,,,63.5,B,1
Proulx,44,Open,Raw,F,USA,,58.97,,,58.97,B,1
Petrella,75,40-49,Raw,F,USA,,36.29,,,36.29,B,1
Hartnett,75,50-59,Raw,F,USA,,49.9,,,49.9,B,1
Bethea,82.5+,Open,Raw,F,USA,,88.45,,,88.45,B,1
Bethea,82.5+,33-39,Raw,F,USA,,88.45,,,88.45,B,1
Misorski,36.29,9-10,Raw,M,USA,,22.68,,,22.68,B,1
Giambalvo,56,14-16,Multi-ply,M,USA,,95.25,,,95.25,B,1
Dern,56,17-19,Multi-ply,M,USA,,106.59,,,106.59,B,1
Henderson,56,O,Multi-ply,M,USA,,151.95,,,151.95,B,1
Henderson,56,40-49,Multi-ply,M,USA,,151.95,,,151.95,B,1
Elrod,75,JR,Multi-ply,M,USA,,,,,,B,DQ
Elrod,75,JR,Raw,M,USA,,145.15,,,145.15,B,1
Zimmerman,75,O,Multi-ply,M,USA,,145.15,,,145.15,B,1
Joseph,75,O,Multi-ply,M,USA,,,,,,B,DQ
Wright,75,O,Raw,M,USA,,167.83,,,167.83,B,1
Joseph,75,O,Raw,M,USA,,163.29,,,163.29,B,2
Tyler,75,O,Raw,M,USA,,136.08,,,136.08,B,3
Sangermano,75,O,Raw,M,USA,,95.25,,,95.25,B,4
Ahuja,75,O,Raw,M,India,,124.74,,,124.74,B,G
Sanfilippo,75,33-39,Multi-ply,M,USA,,170.1,,,170.1,B,1
Gattinella,75,33-39,Multi-ply,M,USA,,136.08,,,136.08,B,2
Sangermano,75,33-39,Raw,M,USA,,95.25,,,95.25,B,1
Farrell,75,40-49,Multi-ply,M,USA,,108.86,,,108.86,B,1
Farrell,75,40-49,Raw,M,USA,,102.06,,,102.06,B,1
Lane #2,75,50-59,Raw,M,USA,,113.4,,,113.4,B,1
Karkoska,75,50-59,Raw,M,USA,,113.4,,,113.4,B,2
Wright,82.5,17-19,Raw,M,USA,,99.79,,,99.79,B,1
Danna,82.5,O,Multi-ply,M,Brazil,,190.51,,,190.51,B,1
Afari,82.5,O,Multi-ply,M,USA,,170.1,,,170.1,B,2
Wallace,82.5,O,Raw,M,USA,,176.9,,,176.9,B,1
Misorski Jr,82.5,O,Raw,M,USA,,145.15,,,145.15,B,2
Kramer,82.5,O,Raw,M,USA,,136.08,,,136.08,B,3
Wallace,82.5,JR,Raw,M,USA,,176.9,,,176.9,B,1
Fatta,82.5,40-49,Multi-ply,M,USA,,176.9,,,176.9,B,1
Flumara,82.5,40-49,Multi-ply,M,USA,,158.76,,,158.76,B,2
Misorski Jr,82.5,33-39,Raw,M,USA,,145.15,,,145.15,B,1
Brager,82.5,40-49,Multi-ply,M,USA,,140.61,,,140.61,B,3
Freed,82.5,50-59,Raw,M,USA,,142.88,,,142.88,B,1
Misorski Sr,82.5,50-59,Raw,M,USA,,111.13,,,111.13,B,2
Danna,82.5,P/F/M,Multi-ply,M,USA,,190.51,,,190.51,B,1
Handlin,90,O,Multi-ply,M,USA,,195.04,,,195.04,B,1
Kelley,90,O,Multi-ply,M,USA,,192.78,,,192.78,B,2
Dalzell,90,O,Multi-ply,M,USA,,188.24,,,188.24,B,3
Patrick,90,O,Multi-ply,M,USA,,183.71,,,183.71,B,4
Barbarino,90,O,Multi-ply,M,USA,,167.83,,,167.83,B,5
Casagrande,90,O,Multi-ply,M,Brazil,,149.69,,,149.69,B,6
Carricuto,90,O,Multi-ply,M,USA,,147.42,,,147.42,B,7
Pollack,90,O,Multi-ply,M,USA,,,,,,B,DQ
No,90,O,Raw,M,USA,,185.97,,,185.97,B,1
Daubler,90,O,Raw,M,USA,,,,,,B,DQ
Handlin,90,33-39,Multi-ply,M,USA,,195.04,,,195.04,B,1
Patrick,90,33-39,Multi-ply,M,USA,,183.71,,,183.71,B,2
Gaskin,90,40-49,Raw,M,USA,,140.61,,,140.61,B,1
Phillips,90,50-59,Multi-ply,M,USA,,158.76,,,158.76,B,1
John Mitsopoulos,90,50-59,Multi-ply,M,USA,,154.22,,,154.22,B,2
Smith,90,50-59,Raw,M,USA,,113.4,,,113.4,B,1
John Herbein,90,60-69,Multi-ply,M,USA,,120.2,,,120.2,B,1
Kelley,90,P/F/M,Multi-ply,M,USA,,192.78,,,192.78,B,1
Lucky,90,P/F/M,Multi-ply,M,USA,,161.03,,,161.03,B,2
Kelley,100,O,Multi-ply,M,USA,,247.21,,,247.21,B,1
Fritz,100,O,Multi-ply,M,USA,,167.83,,,167.83,B,2
Risi,100,O,Multi-ply,M,USA,,,,,,B,DQ
Schwartz,100,O,Raw,M,USA,,165.56,,,165.56,B,1
Fritz,100,O,Raw,M,USA,,149.69,,,149.69,B,2
Nunnally,100,33-39,Multi-ply,M,USA,,174.63,,,174.63,B,1
Horvath,100,40-49,Multi-ply,M,USA,,154.22,,,154.22,B,1
Johnson,100,40-49,Raw,M,USA,,147.42,,,147.42,B,1
B. Misorski,100,40-49,Raw,M,USA,,115.67,,,115.67,B,2
Risi,100,50-59,Multi-ply,M,USA,,,,,,B,DQ
Davis,100,50-59,Raw,M,USA,,145.15,,,145.15,B,1
Tom Cinelli,100,50-59,Raw,M,USA,,122.47,,,122.47,B,2
McGuire,100,70-79,Multi-ply,M,USA,,129.27,,,129.27,B,1
Kelley,100,P/F/M,Multi-ply,M,USA,,247.21,,,247.21,B,1
Vargo,110,O,Multi-ply,M,USA,,219.99,,,219.99,B,1
Taylor,110,O,Multi-ply,M,USA,,192.78,,,192.78,B,2
Maher,110,O,Multi-ply,M,USA,,,,,,B,DQ
Cooke,110,O,Raw,M,USA,,195.04,,,195.04,B,1
Hicks,110,O,Raw,M,USA,,145.15,,,145.15,B,2
Cooke,110,33-39,Raw,M,USA,,195.04,,,195.04,B,1
Erb,110,33-39,Raw,M,USA,,158.76,,,158.76,B,2
Taylor,110,40-49,Multi-ply,M,USA,,192.78,,,192.78,B,1
E. LeBlanc,110,40-49,Multi-ply,M,USA,,183.71,,,183.71,B,2
Capers,110,40-49,Multi-ply,M,USA,,161.03,,,161.03,B,3
Maher,110,40-49,Multi-ply,M,USA,,,,,,B,DQ
D'Alessandro,110,40-49,Raw,M,USA,,174.63,,,174.63,B,1
Glenney,110,50-59,Multi-ply,M,USA,,170.1,,,170.1,B,1
D'Alessandro,110,P/F/M,Multi-ply,M,USA,,174.63,,,174.63,B,1
Peshek,125,O,Multi-ply,M,USA,,258.55,,,258.55,B,1
Disantostefano,125,O,Multi-ply,M,USA,,240.4,,,240.4,B,2
Raynore,125,O,Raw,M,USA,,210.92,,,210.92,B,1
Johnson,125,O,Raw,M,USA,,174.63,,,174.63,B,2
Hilderley,125,O,Raw,M,USA,,172.37,,,172.37,B,3
Silverbloom,125,O,Raw,M,USA,,156.49,,,156.49,B,4
Fernandez,125,O,Raw,M,USA,,,,,,B,DQ
Peshek,125,33-39,Multi-ply,M,USA,,258.55,,,258.55,B,1
Perotta,125,33-39,Multi-ply,M,USA,,226.8,,,226.8,B,2
Johnson,125,33-39,Multi-ply,M,USA,,185.97,,,185.97,B,3
Kocher,125,33-39,Raw,M,USA,,165.56,,,165.56,B,1
Hunter,125,40-49,Multi-ply,M,USA,,213.19,,,213.19,B,1
Cherry,125,40-49,Multi-ply,M,USA,,174.63,,,174.63,B,2
Jackson,125,40-49,Raw,M,USA,,213.19,,,213.19,B,1
Fultz,125,40-49,Raw,M,USA,,174.63,,,174.63,B,2
Hilderley,125,40-49,Raw,M,USA,,172.37,,,172.37,B,3
Silverbloom,125,40-49,Raw,M,USA,,156.49,,,156.49,B,4
Dolton,125,50-59,Multi-ply,M,USA,,183.71,,,183.71,B,1
Poston,125,50-59,Multi-ply,M,USA,,136.08,,,136.08,B,2
Romero,125,70-79,Raw,M,USA,,111.13,,,111.13,B,1
Dolton,125,P/F/M,Multi-ply,M,USA,,183.71,,,183.71,B,1
Kocher,125,P/F/M,Multi-ply,M,USA,,165.56,,,165.56,B,2
Miller,125+,O,Multi-ply,M,USA,,,,,,B,DQ
Washington,125+,O,Raw,M,USA,,238.14,,,238.14,B,1
Dixon,125+,O,Raw,M,USA,,208.65,,,208.65,B,2
Lopez,125+,33-39,Multi-ply,M,USA,,240.4,,,240.4,B,1
Dixon,125+,33-39,Raw,M,USA,,208.65,,,208.65,B,1
Irby,125+,40-49,Raw,M,USA,,217.72,,,217.72,B,1
Semmon,125+,40-49,Raw,M,USA,,199.58,,,199.58,B,2
Lopez,125+,P/F/M,Multi-ply,M,USA,,240.4,,,240.4,B,1
Cahill,90,International Cup,Multi-ply,M,USA,,174.63,,,174.63,B,1
Walker,60,40-49,Multi-ply,F,USA,,,140.61,,140.61,D,1
Petrella,75,40-49,Multi-ply,F,USA,,,72.57,,72.57,D,1
Hartnett,75,50-59,Multi-ply,F,USA,,,72.57,,72.57,D,1
Whigham,60,O,Multi-ply,M,USA,,,229.06,,229.06,D,1
Carlos Rijos-Soto,75,O,Multi-ply,M,Puerto Rico,,,272.16,,272.16,D,1
Zimmerman,75,O,Multi-ply,M,USA,,,208.65,,208.65,D,2
Joseph,75,O,Multi-ply,M,USA,,,161.03,,161.03,D,3
Thomas,75,JR,Multi-ply,M,USA,,,188.24,,188.24,D,1
Bravard,75,33-39,Multi-ply,M,USA,,,226.8,,226.8,D,1
Wright,82.5,17-19,Multi-ply,M,USA,,,158.76,172.37,158.76,D,1
Danna,82.5,O,Multi-ply,M,Brazil,,,242.67,,242.67,D,1
Netman,82.5,O,Multi-ply,M,USA,,,238.14,,238.14,D,2
Skinner,82.5,O,Multi-ply,M,Canada,,,213.19,,213.19,D,3
Locklear,82.5,O,Multi-ply,M,USA,,,206.38,,206.38,D,4
Skinner,82.5,40-49,Multi-ply,M,Canada,,,213.19,,213.19,D,1
Danna,82.5,P/F/M,Multi-ply,M,Brazil,,,242.67,,242.67,D,1
Skinner,82.5,P/F/M,Multi-ply,M,Canada,,,213.19,,213.19,D,2
Tee Meyers,90,O,Multi-ply,M,USA,,,326.59,,326.59,D,1
Casagrande,90,O,Multi-ply,M,Brazil,,,310.71,,310.71,D,2
Carricuto,90,O,Multi-ply,M,USA,,,240.4,,240.4,D,3
John Herbein,90,O,Multi-ply,M,USA,,,240.4,,240.4,D,4
Pollack,90,O,Multi-ply,M,USA,,,235.87,,235.87,D,5
Williams,90,O,Multi-ply,M,USA,,,231.33,,231.33,D,6
Sanders,90,33-39,Multi-ply,M,USA,,,278.96,,278.96,D,1
Blocker,90,33-39,Multi-ply,M,USA,,,238.14,,238.14,D,2
Welton,90,40-49,Multi-ply,M,USA,,,215.46,,215.46,D,1
Smith,90,50-59,Multi-ply,M,USA,,,249.48,,249.48,D,1
Vic Scaranda,90,50-59,Multi-ply,M,USA,,,238.14,,238.14,D,2
Williams,90,P/F/M,Multi-ply,M,USA,,,231.33,,231.33,D,1
Stathopoulos,90,P/F/M,Multi-ply,M,USA,,,222.26,,222.26,D,2
Thomas,100,O,Multi-ply,M,USA,,,290.3,,290.3,D,1
Fritz,100,O,Multi-ply,M,USA,,,272.16,,272.16,D,2
Thomas,100,40-49,Multi-ply,M,USA,,,290.3,,290.3,D,1
Huell,100,40-49,Multi-ply,M,USA,,,238.14,,238.14,D,2
Johnson,100,40-49,Multi-ply,M,USA,,,235.87,,235.87,D,3
Horvath,100,40-49,Multi-ply,M,USA,,,192.78,,192.78,D,4
B. Misorski,100,40-49,Multi-ply,M,USA,,,183.71,,183.71,D,5
Tom Cinelli,100,50-59,Multi-ply,M,USA,,,163.29,,163.29,D,1
Harrigan,110,O,Multi-ply,M,USA,,,163.29,,163.29,D,1
Aziz,110,33-39,Multi-ply,M,USA,,,260.82,,260.82,D,1
Erb,110,33-39,Multi-ply,M,USA,,,238.14,,238.14,D,2
E. LeBlanc,110,40-49,Multi-ply,M,USA,,,274.42,,274.42,D,1
Lovejoy,110,40-49,Multi-ply,M,USA,,,249.48,,249.48,D,2
Bucchioni,110,50-59,Multi-ply,M,USA,,,242.67,,242.67,D,1
Dusenbury,110,50-59,Multi-ply,M,USA,,,231.33,,231.33,D,2
Brown,125,40-49,Multi-ply,M,USA,,,188.24,,188.24,D,1
Bergan,125,50-59,Multi-ply,M,USA,,,226.8,,226.8,D,1
Wright,125+,O,Multi-ply,M,USA,,,303.91,,303.91,D,1
Washington,125+,O,Multi-ply,M,USA,,,258.55,,258.55,D,2
Wright,125+,40-49,Multi-ply,M,USA,,,303.91,,303.91,D,1
Whigham,60,O,Multi-ply,M,USA,199.58,,,,199.58,S,1
Kramer,82.5,O,Wraps,M,USA,190.51,,,,190.51,S,1
Sanders,90,33-39,Multi-ply,M,USA,235.87,,,,235.87,S,1
Smith,90,50-59,Multi-ply,M,USA,,,,,,S,DQ
Stathopoulos,90,P/F/M,Multi-ply,M,USA,174.63,,,,174.63,S,1
Huell,100,40-49,Multi-ply,M,USA,222.26,,,,222.26,S,1
Nick Maltezos,110,O,Multi-ply,M,USA,294.84,,,,294.84,S,1
Lovejoy,110,40-49,Wraps,M,USA,235.87,,,,235.87,S,1
Nick Maltezos,110,International Cup,Multi-ply,M,USA,294.84,,,,294.84,S,1
Kassell,48,O,Multi-ply,F,USA,95.25,63.5,127.01,,285.76,SBD,1
Torres,52,O,Multi-ply,F,Puerto Rico,120.2,52.16,136.08,,308.44,SBD,1
Kelly,60,O,Wraps,F,USA,77.11,56.7,81.65,,215.46,SBD,1
O'Donald,60,33-39,Wraps,F,USA,79.38,45.36,102.06,,226.8,SBD,1
Granger,67.5,14-16,Wraps,F,USA,90.72,47.63,158.76,,297.1,SBD,1
Orliss,75,O,Multi-ply,F,USA,149.69,92.99,167.83,,410.5,SBD,1
Hayes,75,40-49,Multi-ply,F,USA,122.47,83.91,154.22,,360.61,SBD,1
Petrella,75,40-49,Wraps,F,USA,,,,,,SBD,DQ
Hartnett,75,50-59,Wraps,F,USA,49.9,52.16,72.57,,174.63,SBD,1
Whigham,60,O,Multi-ply,M,USA,199.58,106.59,229.06,,535.24,SBD,1
Maez,60,O,Multi-ply,M,Mexico,,,,,,SBD,DQ
Maez,60,33-39,Multi-ply,M,Mexico,,,,,,SBD,DQ
Mascio,67.5,JR,Multi-ply,M,USA,147.42,108.86,163.29,,419.57,SBD,1
Brown,67.5,O,Multi-ply,M,USA,233.6,113.4,217.72,,564.72,SBD,1
Russ Granato,67.5,O,Multi-ply,M,USA,195.04,131.54,208.65,,535.24,SBD,2
Brown,67.5,40-49,Multi-ply,M,USA,233.6,113.4,217.72,,564.72,SBD,1
Brochey,67.5,40-49,Multi-ply,M,USA,145.15,115.67,147.42,,408.23,SBD,2
Brown,67.5,P/F/M,Multi-ply,M,USA,233.6,113.4,217.72,,564.72,SBD,1
Baker,75,14-16,Multi-ply,M,USA,136.08,79.38,147.42,,362.87,SBD,1
Petrelli,75,JR,Wraps,M,USA,176.9,133.81,179.17,,489.88,SBD,1
Thomas,75,JR,Wraps,M,USA,156.49,129.27,188.24,,474,SBD,2
Elsberry,75,O,Multi-ply,M,USA,185.97,147.42,208.65,,542.04,SBD,1
Metivier,75,O,Multi-ply,M,USA,183.71,120.2,215.46,,519.36,SBD,2
Zimmerman,75,O,Multi-ply,M,USA,158.76,145.15,208.65,,512.56,SBD,3
Bravard,75,33-39,Multi-ply,M,USA,158.76,117.93,226.8,,503.49,SBD,1
Kingure,75,33-39,Multi-ply,M,USA,,,,,,SBD,DQ
Elsberry,75,40-49,Multi-ply,M,USA,185.97,147.42,208.65,,542.04,SBD,1
Metivier,75,40-49,Multi-ply,M,USA,183.71,120.2,215.46,,519.36,SBD,2
Fleming,75,50-59,Wraps,M,USA,151.95,43.09,183.71,,378.75,SBD,1
Welch,75,50-59,Multi-ply,M,USA,215.46,151.95,240.4,,607.81,SBD,1
Kingure,75,P/F/M,Multi-ply,M,USA,,,,,,SBD,DQ
Thomas,75,P/F/M,Wraps,M,USA,156.49,129.27,188.24,,474,SBD,1
DeStafano,82.5,17-19,Wraps,M,USA,201.85,113.4,242.67,,557.92,SBD,1
Hicks,82.5,JR,Multi-ply,M,USA,210.92,142.88,204.12,,557.92,SBD,1
Barry LaFoy,82.5,O,Multi-ply,M,USA,265.35,188.24,288.03,,741.62,SBD,1
Lawrence,82.5,O,Multi-ply,M,USA,238.14,,,,,SBD,DQ
Reeves,82.5,O,Wraps,M,USA,215.46,149.69,251.74,,616.89,SBD,1
Romberger,82.5,O,Wraps,M,USA,197.31,161.03,256.28,,614.62,SBD,2
McNinch,82.5,O,Wraps,M,USA,215.46,151.95,199.58,,566.99,SBD,3
Kramer,82.5,O,Wraps,M,USA,190.51,136.08,195.04,,521.63,SBD,4
Lamonka,82.5,33-39,Wraps,M,Canada,136.08,83.91,185.97,,405.97,SBD,1
Williams,82.5,40-49,Multi-ply,M,Mexico,,,,,,SBD,DQ
Reeves,82.5,P/F/M,Wraps,M,USA,215.46,149.69,251.74,,616.89,SBD,1
Polis,90,O,Multi-ply,M,USA,215.46,163.29,256.28,,635.03,SBD,1
Hailey,90,O,Multi-ply,M,USA,210.92,147.42,201.85,,560.19,SBD,2
Stathopoulos,90,O,Multi-ply,M,USA,174.63,131.54,222.26,,528.44,SBD,3
Blocker,90,O,Wraps,M,USA,204.12,154.22,238.14,,596.47,SBD,1
Taylor,90,O,Wraps,M,USA,195.04,133.81,229.06,,557.92,SBD,2
Sanders,90,33-39,Multi-ply,M,USA,235.87,154.22,278.96,,669.05,SBD,1
Polis,90,33-39,Multi-ply,M,USA,215.46,163.29,256.28,,635.03,SBD,2
Lombardo,90,33-39,Multi-ply,M,USA,190.51,158.76,204.12,,553.38,SBD,3
Blocker,90,33-39,Wraps,M,USA,204.12,154.22,238.14,,596.47,SBD,1
Hatten,90,40-49,Multi-ply,M,USA,208.65,90.72,238.14,,537.51,SBD,1
Williams,90,40-49,Multi-ply,M,USA,181.44,117.93,231.33,,530.7,SBD,2
Deamicis,90,40-49,Wraps,M,USA,181.44,120.2,242.67,,544.31,SBD,1
Phillips,90,50-59,Multi-ply,M,USA,195.04,158.76,226.8,,580.6,SBD,1
Vic Scaranda,90,50-59,Multi-ply,M,USA,181.44,113.4,238.14,,532.97,SBD,2
Smith,90,50-59,Wraps,M,USA,,,,,,SBD,DQ
John Herbein,90,60-69,Multi-ply,M,USA,136.08,120.2,240.4,,496.68,SBD,1
Deamicis,90,P/F/M,Wraps,M,USA,181.44,120.2,242.67,,544.31,SBD,1
Ferrell Jr,100,11-13,Wraps,M,USA,81.65,52.16,106.59,,240.4,SBD,1
Baker,100,14-16,Multi-ply,M,USA,231.33,113.4,204.12,,548.85,SBD,1
Kuhns,100,O,Multi-ply,M,USA,281.23,204.12,249.48,,734.82,SBD,1
Rydelek,100,O,Multi-ply,M,USA,229.06,170.1,254.01,,653.17,SBD,3
Cavanaugh,100,O,Multi-ply,M,USA,249.48,165.56,249.48,,664.51,SBD,2
Kliefoth,100,33-39,Wraps,M,USA,283.5,158.76,260.82,,703.07,SBD,1
Zimmerman,100,33-39,Wraps,M,USA,263.08,156.49,240.4,,659.98,SBD,2
Quinn,100,33-39,Wraps,M,USA,204.12,158.76,281.23,,644.1,SBD,3
Huell,100,40-49,Multi-ply,M,USA,222.26,136.08,238.14,,596.47,SBD,1
Menendez,100,40-49,Multi-ply,M,USA,267.62,,,,,SBD,DQ
Bleee,100,40-49,Wraps,M,USA,240.4,154.22,244.94,,639.57,SBD,1
B. Misorski,100,40-49,Wraps,M,USA,165.56,115.67,183.71,,464.93,SBD,2
Jones,100,50-59,Wraps,M,USA,204.12,127.01,226.8,,557.92,SBD,1
Tom Cinelli,100,50-59,Wraps,M,USA,147.42,122.47,163.29,,433.18,SBD,2
Bowman,110,JR,Multi-ply,M,USA,256.28,185.97,276.69,,718.94,SBD,1
Seifert,110,O,Wraps,M,USA,276.69,167.83,258.55,,703.07,SBD,1
Hennebert,110,O,Wraps,M,USA,206.38,,,,,SBD,DQ
Gallagher,110,33-39,Wraps,M,USA,226.8,,,,,SBD,DQ
Lovejoy,110,40-49,Wraps,M,USA,235.87,156.49,249.48,,641.83,SBD,1
Bucchioni,110,50-59,Wraps,M,USA,185.97,127.01,242.67,,555.65,SBD,1
Aziz,110,P/F/M,Multi-ply,M,USA,276.69,185.97,260.82,,723.48,SBD,1
Siefert,110,P/F/M,Wraps,M,USA,276.69,167.83,258.55,,703.07,SBD,1
Ferrell,125,O,Multi-ply,M,USA,322.05,158.76,326.59,,807.4,SBD,1
Peshek,125,O,Multi-ply,M,USA,22.68,258.55,22.68,,303.91,SBD,2
Brooks,125,O,Wraps,M,USA,294.84,188.24,326.59,,809.66,SBD,1
Pounds,125,O,Wraps,M,USA,235.87,188.24,274.42,,698.53,SBD,2
Brooks,125,O,Wraps,M,USA,226.8,156.49,251.74,,635.03,SBD,3
Goodman,125,33-39,Multi-ply,M,USA,317.52,204.12,317.52,,839.15,SBD,1
Torrie,125,33-39,Multi-ply,M,USA,254.01,199.58,238.14,,691.73,SBD,2
Desantis,125,33-39,Multi-ply,M,USA,238.14,170.1,238.14,,646.37,SBD,3
Peshek,125,33-39,Multi-ply,M,USA,22.68,258.55,22.68,,303.91,SBD,4
Koehler,125,40-49,Multi-ply,M,USA,204.12,151.95,226.8,,582.87,SBD,1
Smith,125,50-59,Wraps,M,USA,183.71,147.42,183.71,,514.83,SBD,1
Simmons,125,50-59,Multi-ply,M,USA,215.46,165.56,213.19,,594.21,SBD,1
Bergan,125,50-59,Multi-ply,M,USA,181.44,124.74,226.8,,532.97,SBD,2
Goodman,125,P/F/M,Multi-ply,M,USA,317.52,204.12,317.52,,839.15,SBD,1
Knowles,125+,O,Multi-ply,M,USA,385.55,226.8,340.19,,952.55,SBD,1
Yoder,125+,O,Multi-ply,M,USA,254.01,174.63,263.08,,691.73,SBD,2
Wheeler,125+,40-49,Multi-ply,M,USA,333.39,195.04,142.88,,671.32,SBD,1
Dodson,60,14-16,Multi-ply,F,USA,52.16,34.02,72.57,,158.76,SBD,1
Frauenfelder,60,14-16,Multi-ply,F,USA,40.82,47.63,56.7,,145.15,SBD,2
Trudell,67.5,14-16,Multi-ply,F,USA,56.7,34.02,95.25,,185.97,SBD,1
Laigle,67.5,17-19,Multi-ply,F,USA,56.7,54.43,95.25,,206.38,SBD,1
Seyfried,75,17-19,Multi-ply,F,USA,92.99,58.97,104.33,,256.28,SBD,1
Moran,82.5,14-16,Multi-ply,F,USA,90.72,58.97,136.08,,285.76,SBD,1
Farrell,82.5+,O,Multi-ply,F,USA,81.65,45.36,86.18,,213.19,SBD,1
Hughes,56,11-13,Wraps,M,USA,90.72,68.04,111.13,,269.89,SBD,1
McCall,56,14-16,Multi-ply,M,USA,95.25,56.7,79.38,,231.33,SBD,1
Burgess,60,17-19,Multi-ply,M,USA,88.45,56.7,115.67,,260.82,SBD,1
Buckingham,67.5,14-16,Multi-ply,M,USA,43.09,38.56,79.38,,161.03,SBD,1
Massino,75,14-16,Multi-ply,M,USA,86.18,61.24,129.27,,276.69,SBD,2
Moran,75,14-16,Multi-ply,M,USA,83.91,52.16,95.25,,231.33,SBD,3
O'Brien,82.5,O,Multi-ply,M,USA,136.08,79.38,165.56,,381.02,SBD,2
Berned,82.5,O,Multi-ply,M,USA,83.91,52.16,86.18,,222.26,SBD,3
Seyfried,100,14-16,Multi-ply,M,USA,183.71,68.04,183.71,,435.45,SBD,2
Koch,100,P/F/M,Multi-ply,M,USA,,,,,,SBD,DQ
