Division,WeightClassKg,Place,Name,Team,BodyweightKg,Best3SquatKg,Best3BenchKg,Best3DeadliftKg,TotalKg,Equipment,Event,Sex
Boys,55.79,1,Joey Silva,Garland Sachse,51.94,156.49,77.11,154.22,387.82,Single-ply,SBD,M
Boys,51.71,2,Je'torey Roberts,Mesquite Horn,50.35,115.67,61.23,140.61,317.51,Single-ply,SBD,M
Boys,51.71,3,Luke Duvall,North Mesquite,51.6,106.59,70.31,138.35,315.25,Single-ply,SBD,M
Boys,51.71,4,K Kuntz,Rockwall,51.14,115.67,54.43,127.01,297.1,Single-ply,SBD,M
Boys,51.71,5,Axel Banks,Denison,47.29,81.65,54.43,86.18,222.26,Single-ply,SBD,M
Boys,55.79,6,Caleb Brown,Garland Rowlett,51.94,65.77,43.09,92.99,201.85,Single-ply,SBD,M
Boys,51.71,7,Storm Frazier,Oakridge School,43.77,72.57,36.29,81.65,190.51,Single-ply,SBD,M
Boys,51.71,DQ,L. White,Greenville,51.37,,,,,Single-ply,SBD,M
Boys,55.79,1,Stephen Nelson,Denison,55.79,140.61,74.84,147.42,362.87,Single-ply,SBD,M
Boys,55.79,2,P Poindexter,Rockwall,55.57,108.86,83.91,136.08,328.85,Single-ply,SBD,M
Boys,55.79,3,Cory Chappell,Garland Rowlett,54.88,106.59,70.31,147.42,324.32,Single-ply,SBD,M
Boys,55.79,4,X Palmer,Greenville,55.68,106.59,70.31,113.4,290.3,Single-ply,SBD,M
Boys,55.79,5,Houston Patterson,Justin Northwest,53.52,108.86,63.5,113.4,285.76,Single-ply,SBD,M
Boys,55.79,6,Ellic Hayden,Justin Northwest,53.52,104.33,77.11,102.06,283.5,Single-ply,SBD,M
Boys,55.79,7,Matthew Castillo,North Mesquite,53.64,95.25,54.43,113.4,263.08,Single-ply,SBD,M
Boys,59.87,8,Michael Dvorak,Garland Rowlett,56.02,74.84,56.7,79.38,210.92,Single-ply,SBD,M
Boys,55.79,DQ,Daniel Hernandez,Royse City,54.43,142.88,,,,Single-ply,SBD,M
Boys,59.87,1,Alfred Champion,Greenville,59.42,165.56,97.52,170.1,433.18,Single-ply,SBD,M
Boys,59.87,2,James Bickham,Forney,59.87,142.88,68.04,154.22,365.14,Single-ply,SBD,M
Boys,59.87,3,Gerardo Romo,North Mesquite,59.76,133.81,88.45,138.35,360.61,Single-ply,SBD,M
Boys,67.13,4,Chris Doyle,Royse City,60.1,124.74,83.91,151.95,360.61,Single-ply,SBD,M
Boys,67.13,5,Marcelino Montano,Wills Point,60.1,90.72,86.18,131.54,308.44,Single-ply,SBD,M
Boys,67.13,6,E Easter,Rockwall,59.99,106.59,72.57,124.74,303.91,Single-ply,SBD,M
Boys,67.13,DQ,M Stenline,South Garland,59.99,,,,,Single-ply,SBD,M
Boys,67.13,1,T. Davis,South Garland,66.9,174.63,127.01,188.24,489.88,Single-ply,SBD,M
Boys,67.13,2,Zach Daniel,Denison,67.13,185.97,95.25,188.24,469.47,Single-ply,SBD,M
Boys,67.13,3,Ashton Hunter,Garland Sachse,64.41,163.29,104.33,188.24,455.86,Single-ply,SBD,M
Boys,74.84,4,Marcus Henderson,Mesquite Poteet,67.36,176.9,106.59,172.37,455.86,Single-ply,SBD,M
Boys,67.13,5,Austin Martin #3,Greenville,66,163.29,106.59,183.7,453.59,Single-ply,SBD,M
Boys,67.13,6,Rhicky Wood,Garland Sachse,64.52,163.29,111.13,176.9,451.32,Single-ply,SBD,M
Boys,67.13,7,Casey Obenshain,Justin Northwest,65.77,151.95,95.25,181.44,428.64,Single-ply,SBD,M
Boys,67.13,8,Jonny Sorey,Forney,62.82,156.49,86.18,167.83,410.5,Single-ply,SBD,M
Boys,67.13,9,Sloan Walls,North Forney,66.68,140.61,108.86,149.69,399.16,Single-ply,SBD,M
Boys,67.13,10,Martin Saldivar,West Mesquite,62.26,136.08,95.25,163.29,394.63,Single-ply,SBD,M
Boys,67.13,11,Stephen Gray,Mesquite Horn,67.13,138.35,90.72,158.76,387.82,Single-ply,SBD,M
Boys,67.13,12,Zak Kellum,Forney,67.02,136.08,95.25,154.22,385.55,Single-ply,SBD,M
Boys,67.13,13,Tritt Ngyuen,Garland Sachse,65.77,133.81,90.72,142.88,367.41,Single-ply,SBD,M
Boys,67.13,14,A Daniels,South Garland,62.37,138.35,79.38,136.08,353.8,Single-ply,SBD,M
Boys,67.13,15,Tyler McCloughlin,Rockwall-Heath,63.16,122.47,83.91,140.61,347,Single-ply,SBD,M
Boys,67.13,16,Charlie Canady,Mesquite Poteet,63.96,133.81,79.38,122.47,335.66,Single-ply,SBD,M
Boys,67.13,17,Aaron Zeriali,Royse City,65.09,124.74,63.5,136.08,324.32,Single-ply,SBD,M
Boys,67.13,18,Cooper Townsley,Oakridge School,63.73,120.2,72.57,129.27,322.05,Single-ply,SBD,M
Boys,67.13,19,Trevor White,Greenville,67.13,111.13,70.31,129.27,310.71,Single-ply,SBD,M
Boys,67.13,20,Keith Machenyanga,Mesquite Poteet,64.75,99.79,65.77,115.67,281.23,Single-ply,SBD,M
Boys,67.13,DQ,Jakeem Grant,Mesquite Horn,67.13,,,,,Single-ply,SBD,M
Boys,67.13,DQ,Dakota Keller,North Forney,67.13,,,,,Single-ply,SBD,M
Boys,74.84,1,Jamiah Ellis,Garland Rowlett,72.46,201.85,102.06,208.65,512.56,Single-ply,SBD,M
Boys,74.84,2,Ottis Nevels,Mesquite Horn,70.08,192.78,113.4,197.31,503.49,Single-ply,SBD,M
Boys,74.84,3,B Bittle,Rockwall,72.91,188.24,113.4,192.78,494.42,Single-ply,SBD,M
Boys,74.84,4,Marshall Tollison,Rockwall-Heath,74.05,165.56,124.74,183.7,474,Single-ply,SBD,M
Boys,74.84,5,Keegan McCarthy,Garland Sachse,74.73,190.51,102.06,181.44,474,Single-ply,SBD,M
Boys,74.84,6,Jason Thomas,Mesquite Horn,73.71,185.97,111.13,172.37,469.47,Single-ply,SBD,M
Boys,74.84,7,Michael Hohn,Oakridge School,74.39,151.95,95.25,222.26,469.47,Single-ply,SBD,M
Boys,74.84,8,Garrett Kraus,Garland Sachse,74.28,165.56,115.67,185.97,467.2,Single-ply,SBD,M
Boys,74.84,9,Brian Luna,West Mesquite,70.76,167.83,106.59,183.7,458.13,Single-ply,SBD,M
Boys,74.84,10,Alec Lafoon,Justin Northwest,71.33,163.29,86.18,188.24,437.72,Single-ply,SBD,M
Boys,74.84,11,Ernesto Franco,Royse City,69.29,163.29,104.33,165.56,433.18,Single-ply,SBD,M
Boys,74.84,12,Justin Kelly,Mesquite Horn,71.44,142.88,113.4,167.83,424.11,Single-ply,SBD,M
Boys,74.84,13,Brandon Myles,North Mesquite,69.29,158.76,102.06,158.76,419.57,Single-ply,SBD,M
Boys,74.84,14,Avery Wren,Garland Rowlett,73.71,156.49,97.52,165.56,419.57,Single-ply,SBD,M
Boys,74.84,15,Colin Jones,Forney,68.83,147.42,99.79,170.1,417.3,Single-ply,SBD,M
Boys,74.84,16,Evan Brashier,Forney,70.99,158.76,83.91,172.37,415.04,Single-ply,SBD,M
Boys,74.84,17,Austin Vanloon,Garland Rowlett,74.28,156.49,95.25,161.03,412.77,Single-ply,SBD,M
Boys,74.84,18,Rowen Ragsdale,North Forney,71.89,163.29,97.52,149.69,410.5,Single-ply,SBD,M
Boys,74.84,19,Bodie Johnson,North Mesquite,74.39,147.42,95.25,154.22,396.89,Single-ply,SBD,M
Boys,74.84,20,Bryan Tucker,Wills Point,70.53,142.88,86.18,131.54,360.61,Single-ply,SBD,M
Boys,74.84,21,Gage Lane,Oakridge School,74.62,124.74,72.57,158.76,356.07,Single-ply,SBD,M
Boys,74.84,22,Manning Stone,Wills Point,74.39,122.47,88.45,138.35,349.27,Single-ply,SBD,M
Boys,74.84,23,Thomas Johnson,Royse City,74.5,127.01,72.57,136.08,335.66,Single-ply,SBD,M
Boys,74.84,24,Robert Clinard,North Forney,70.53,115.67,88.45,111.13,315.25,Single-ply,SBD,M
Boys,74.84,25,Mackinzie Malone,Wills Point,67.81,106.59,77.11,120.2,303.91,Single-ply,SBD,M
Boys,74.84,DQ,Jamie Tolliver,Mesquite Poteet,74.84,,,,,Single-ply,SBD,M
Boys,74.84,DQ,Hulsman Jake,Wills Point,74.84,,,,,Single-ply,SBD,M
Boys,74.84,DQ,Garrett Martinez,North Forney,74.84,,,,,Single-ply,SBD,M
Boys,82.1,1,Colton Roelofs,Justin Northwest,79.27,213.19,136.08,226.8,576.06,Single-ply,SBD,M
Boys,82.1,2,Miles Wilson,Oakridge School,80.97,217.72,102.06,219.99,539.77,Single-ply,SBD,M
Boys,82.1,3,A. Sharp,South Garland,75.64,204.12,120.2,208.65,532.97,Single-ply,SBD,M
Boys,82.1,4,Austin Arnold,Denison,80.17,190.51,142.88,197.31,530.7,Single-ply,SBD,M
Boys,82.1,5,Brandon Lowery,Garland Sachse,80.63,190.51,138.35,190.51,519.36,Single-ply,SBD,M
Boys,82.1,6,Zach Wilmany,Garland Rowlett,81.87,197.31,117.93,201.85,517.1,Single-ply,SBD,M
Boys,82.1,7,Matt Olshesky,Garland Sachse,75.98,195.04,124.74,181.44,501.22,Single-ply,SBD,M
Boys,82.1,8,J. Davis #27,South Garland,79.38,185.97,120.2,195.04,501.22,Single-ply,SBD,M
Boys,82.1,9,Horace Boarders,North Mesquite,78.36,197.31,111.13,190.51,498.95,Single-ply,SBD,M
Boys,89.81,10,Travis Alley,Oakridge School,82.33,172.37,104.33,222.26,498.95,Single-ply,SBD,M
Boys,89.81,11,M Moseley,Rockwall,82.33,183.7,104.33,188.24,476.27,Single-ply,SBD,M
Boys,82.1,12,Joseph Frye,Royse City,80.74,163.29,124.74,181.44,469.47,Single-ply,SBD,M
Boys,82.1,13,Kevin Barron,Rockwall-Heath,80.17,174.63,108.86,183.7,467.2,Single-ply,SBD,M
Boys,89.81,14,Anthony Hambric #1,Forney,82.33,181.44,108.86,172.37,462.66,Single-ply,SBD,M
Boys,82.1,15,Blake Glenn,Garland Rowlett,78.7,158.76,106.59,170.1,435.45,Single-ply,SBD,M
Boys,82.1,16,Calvin Estrada,Garland Rowlett,76.88,147.42,102.06,181.44,430.91,Single-ply,SBD,M
Boys,82.1,17,Lapone Finley,North Forney,77.45,158.76,83.91,181.44,424.11,Single-ply,SBD,M
Boys,82.1,18,Blake Childress,West Mesquite,81.87,142.88,102.06,151.95,396.89,Single-ply,SBD,M
Boys,82.1,19,Sam Rushing,Royse City,81.42,142.88,92.99,158.76,394.63,Single-ply,SBD,M
Boys,82.1,20,Oscar Ramirez,Royse City,78.7,158.76,83.91,149.69,392.36,Single-ply,SBD,M
Boys,82.1,21,Luke Schell,Royse City,81.31,154.22,74.84,142.88,371.95,Single-ply,SBD,M
Boys,82.1,22,A Crumpton,Greenville,79.83,111.13,77.11,117.93,306.17,Single-ply,SBD,M
Boys,82.1,23,Nathan Lewis,Wills Point,79.27,102.06,65.77,124.74,292.57,Single-ply,SBD,M
Boys,89.81,24,Alex Dolabi,Oakridge School,82.33,95.25,47.63,122.47,265.35,Single-ply,SBD,M
Boys,82.1,DQ,Tim Bolen,Denison,82.1,,,,,Single-ply,SBD,M
Boys,82.1,DQ,Beau Hughes,North Forney,79.15,122.47,,,,Single-ply,SBD,M
Boys,82.1,DQ,Miguel Sepulveda,North Forney,79.15,154.22,,,,Single-ply,SBD,M
Boys,89.81,1,Jeff Stevens,Justin Northwest,89.7,238.14,156.49,222.26,616.89,Single-ply,SBD,M
Boys,89.81,2,Matthew Cortez,Royse City,89.24,244.94,133.81,204.12,582.87,Single-ply,SBD,M
Boys,89.81,3,Shina Adejuyigbe,Mesquite Horn,85.62,213.19,108.86,213.19,535.24,Single-ply,SBD,M
Boys,89.81,4,Corbin Boettger,Denison,89.24,210.92,117.93,204.12,532.97,Single-ply,SBD,M
Boys,89.81,5,Tom Nguyen,Garland Rowlett,84.59,195.04,102.06,210.92,508.02,Single-ply,SBD,M
Boys,89.81,6,James Vinson,Oakridge School,85.16,192.78,108.86,204.12,505.76,Single-ply,SBD,M
Boys,89.81,7,Cameron Langer,Justin Northwest,85.62,176.9,124.74,199.58,501.22,Single-ply,SBD,M
Boys,89.81,8,Isaac Puga,Mesquite Horn,89.47,183.7,127.01,190.51,501.22,Single-ply,SBD,M
Boys,89.81,9,Chris Johnson,Wills Point,86.98,167.83,131.54,192.78,492.15,Single-ply,SBD,M
Boys,89.81,10,Jeb Smart,Rockwall-Heath,83.69,183.7,102.06,204.12,489.88,Single-ply,SBD,M
Boys,89.81,11,A. Johnson,South Garland,85.39,181.44,120.2,188.24,489.88,Single-ply,SBD,M
Boys,89.81,12,P. Davis,South Garland,85.62,165.56,120.2,192.78,478.54,Single-ply,SBD,M
Boys,89.81,13,Chuck Oputia,North Mesquite,88.79,165.56,111.13,199.58,476.27,Single-ply,SBD,M
Boys,89.81,14,Richard Jones,Mesquite Horn,88.68,161.03,115.67,183.7,460.4,Single-ply,SBD,M
Boys,89.81,15,Eddie Alcantor,West Mesquite,87.54,172.37,127.01,154.22,453.59,Single-ply,SBD,M
Boys,89.81,16,Nick Sandoval,North Mesquite,83.01,176.9,113.4,156.49,446.79,Single-ply,SBD,M
Boys,89.81,17,Garrett Combs,Rockwall-Heath,89.58,156.49,106.59,183.7,446.79,Single-ply,SBD,M
Boys,89.81,18,B Bray,Rockwall,88.34,147.42,92.99,161.03,401.43,Single-ply,SBD,M
Boys,89.81,19,Grant Johnson,Oakridge School,88.34,102.06,61.23,131.54,294.84,Single-ply,SBD,M
Boys,89.81,DQ,Malcom Wright,Denison,89.81,,,,,Single-ply,SBD,M
Boys,89.81,DQ,Louis Perez,Forney,88.9,158.76,81.65,,,Single-ply,SBD,M
Boys,89.81,DQ,Jose Ortiz,Forney,89.81,,,,,Single-ply,SBD,M
Boys,89.81,DQ,Derek Nzeakor,West Mesquite,86.64,165.56,99.79,,,Single-ply,SBD,M
Boys,89.81,DQ,Geraius Forchu,North Forney,89.81,,,,,Single-ply,SBD,M
Boys,99.79,1,Shane King,Justin Northwest,95.71,217.72,104.33,226.8,548.85,Single-ply,SBD,M
Boys,99.79,2,Markeith Thomas,West Mesquite,99.45,204.12,108.86,215.46,528.44,Single-ply,SBD,M
Boys,99.79,3,Brody Johnston,Royse City,96.96,188.24,120.2,206.38,514.83,Single-ply,SBD,M
Boys,99.79,4,Raymond Trevino,Mesquite Poteet,99.79,183.7,124.74,195.04,503.49,Single-ply,SBD,M
Boys,99.79,5,Austin Ortiz,West Mesquite,93.67,199.58,113.4,185.97,498.95,Single-ply,SBD,M
Boys,99.79,6,Silas Firstly,Mesquite Poteet,99.79,188.24,129.27,181.44,498.95,Single-ply,SBD,M
Boys,109.77,7,Stephon Sanders,Mesquite Horn,99.9,188.24,108.86,201.85,498.95,Single-ply,SBD,M
Boys,109.77,8,Clay Eppler,Denison,99.9,190.51,111.13,188.24,489.88,Single-ply,SBD,M
Boys,99.79,9,Truett Lewis,Wills Point,91.29,185.97,113.4,181.44,480.81,Single-ply,SBD,M
Boys,99.79,10,Azeze Adawale,West Mesquite,96.05,167.83,108.86,204.12,480.81,Single-ply,SBD,M
Boys,99.79,11,Travis Stubblefield,Justin Northwest,96.96,183.7,108.86,181.44,474,Single-ply,SBD,M
Boys,99.79,12,David Kennedy,Oakridge School,95.25,172.37,102.06,185.97,460.4,Single-ply,SBD,M
Boys,99.79,13,George Green,Mesquite Poteet,97.41,133.81,97.52,147.42,378.75,Single-ply,SBD,M
Boys,99.79,14,Andrew Hughes,Royse City,96.39,124.74,95.25,151.95,371.95,Single-ply,SBD,M
Boys,99.79,15,A Bhatka,Greenville,95.03,97.52,79.38,106.59,283.5,Single-ply,SBD,M
Boys,99.79,DQ,Roger Chavez,Royse City,97.52,,,,,Single-ply,SBD,M
Boys,99.79,DQ,Dezmond Scott,North Mesquite,99.79,,,,,Single-ply,SBD,M
Boys,99.79,DQ,Alex Anderson,Wills Point,99.79,,,,,Single-ply,SBD,M
Boys,109.77,1,Tyrone Melton,Garland Sachse,102.97,226.8,142.88,226.8,596.47,Single-ply,SBD,M
Boys,109.77,2,Jose Ramirez,Royse City,105.46,249.48,142.88,204.12,596.47,Single-ply,SBD,M
Boys,109.77,3,E. White,South Garland,100.7,210.92,163.29,204.12,578.33,Single-ply,SBD,M
Boys,109.77,4,Dakota Norton,Justin Northwest,105.35,188.24,124.74,204.12,517.1,Single-ply,SBD,M
Boys,109.77,5,Jacob Emery,Denison,102.74,188.24,104.33,206.38,498.95,Single-ply,SBD,M
Boys,109.77,6,Billy Amend,Forney,101.6,197.31,104.33,195.04,496.68,Single-ply,SBD,M
Boys,109.77,7,Kyle Miller #6,West Mesquite,105.46,179.17,122.47,183.7,485.34,Single-ply,SBD,M
Boys,109.77,8,Steve Smith,North Forney,105.12,156.49,113.4,170.1,439.98,Single-ply,SBD,M
Boys,109.77,9,Hibert Cue,Garland Rowlett,107.39,174.63,74.84,172.37,421.84,Single-ply,SBD,M
Boys,109.77,10,A Akins,Greenville,107.05,115.67,90.72,129.27,335.66,Single-ply,SBD,M
Boys,109.77,DQ,Shelton Williams,Rockwall-Heath,109.77,,,,,Single-ply,SBD,M
Boys,109.77,DQ,Trey Coggins,North Forney,106.25,138.35,,,,Single-ply,SBD,M
Boys,109.77,DQ,Terrance Walker,North Forney,108.18,120.2,,,,Single-ply,SBD,M
Boys,124.74,1,Rishaad Wimbley,Forney,124.17,276.69,183.7,249.48,709.87,Single-ply,SBD,M
Boys,124.74,2,Chris Ramos,Forney,121.34,219.99,147.42,222.26,589.67,Single-ply,SBD,M
Boys,124.74,3,Connor Counce,Denison,112.49,235.87,117.93,204.12,557.92,Single-ply,SBD,M
Boys,124.74,4,Abran Oaks,Garland Sachse,119.18,181.44,108.86,206.38,496.68,Single-ply,SBD,M
Boys,124.74,5,Jake Holliman,Rockwall-Heath,111.02,192.78,99.79,201.85,494.42,Single-ply,SBD,M
Boys,124.74,6,Christian Trevino,North Mesquite,113.28,181.44,120.2,172.37,474,Single-ply,SBD,M
Boys,124.74,7,Justin LaFrance,Wills Point,122.02,172.37,102.06,181.44,455.86,Single-ply,SBD,M
Boys,124.74,8,Michael King,West Mesquite,118.73,165.56,122.47,149.69,437.72,Single-ply,SBD,M
Boys,124.74,9,Tim McGlynn,North Mesquite,124.74,170.1,90.72,172.37,433.18,Single-ply,SBD,M
Boys,124.74,10,M McDaniels,Greenville,119.98,117.93,79.38,124.74,322.05,Single-ply,SBD,M
Boys,124.74,11,G Gutsch,Greenville,117.59,97.52,74.84,111.13,283.5,Single-ply,SBD,M
Boys,124.74,12,M. Mays,Greenville,115.21,102.06,83.91,92.99,278.96,Single-ply,SBD,M
Boys,124.74,DQ,Presyon Bass,Mesquite Poteet,124.74,,,,,Single-ply,SBD,M
Boys,124.74,DQ,B Bolin,Rockwall,114.31,,,,,Single-ply,SBD,M
Boys,124.74+,1,B Foma,South Garland,138.91,244.94,145.15,226.8,616.89,Single-ply,SBD,M
Boys,124.74+,2,Lewis Ray,Justin Northwest,146.4,240.4,120.2,217.72,578.33,Single-ply,SBD,M
Boys,124.74+,3,Cipriano Almaguer,Mesquite Horn,156.49,217.72,127.01,226.8,571.53,Single-ply,SBD,M
Boys,124.74+,4,Tyler Pruitt,Rockwall-Heath,125.19,215.46,124.74,192.78,532.97,Single-ply,SBD,M
Boys,124.74+,5,C. Cline,South Garland,140.27,192.78,136.08,204.12,532.97,Single-ply,SBD,M
Boys,124.74+,6,S Langley,South Garland,130.29,192.78,124.74,192.78,510.29,Single-ply,SBD,M
Boys,124.74+,7,Rodney Haynes,Mesquite Poteet,133.36,226.8,102.06,174.63,503.49,Single-ply,SBD,M
Boys,124.74+,8,Gunner Hudson,North Forney,125.19,179.17,113.4,192.78,485.34,Single-ply,SBD,M
Boys,124.74+,9,Jesse Brown,West Mesquite,143.68,204.12,115.67,142.88,462.66,Single-ply,SBD,M
Boys,124.74+,DQ,T Tanner,Rockwall,125.19,210.92,147.42,,,Single-ply,SBD,M
Boys,124.74+,DQ,Seth Butler,Wills Point,134.72,222.26,117.93,,,Single-ply,SBD,M
